(module CONN-ED350-5.0-02P (layer F.Cu) (tedit 5299226A)
  (descr "Bornier d'alimentation 2 pins")
  (tags DEV)
  (solder_mask_margin 0.09906)
  (fp_text reference K1 (at 6.6675 4.9657) (layer F.SilkS)
    (effects (font (thickness 0.3048)))
  )
  (fp_text value CONN_3 (at 0 5.08) (layer F.SilkS)
    (effects (font (thickness 0.3048)))
  )
  (fp_line (start 5.08 -3.81) (end 5.08 3.81) (layer F.SilkS) (width 0.381))
  (fp_line (start 5.08 2.54) (end -5.08 2.54) (layer F.SilkS) (width 0.381))
  (fp_line (start 5.08 -3.81) (end -5.08 -3.81) (layer F.SilkS) (width 0.381))
  (fp_line (start -5.08 -3.81) (end -5.08 3.81) (layer F.SilkS) (width 0.381))
  (fp_line (start -5.08 3.81) (end 5.08 3.81) (layer F.SilkS) (width 0.381))
  (pad 1 thru_hole rect (at -2.54 0) (size 2.54 2.54) (drill 1.524) (layers *.Cu *.Mask F.SilkS))
  (pad 2 thru_hole circle (at 2.54 0) (size 2.54 2.54) (drill 1.524) (layers *.Cu *.Mask F.SilkS))
)
