(module CONN-2.54-2-DS (layer F.Cu) (tedit 4F7E8AA7)
  (fp_text reference P15 (at 0 -4.318) (layer F.SilkS)
    (effects (font (thickness 0.3048)))
  )
  (fp_text value PH (at 0 4.318) (layer F.SilkS)
    (effects (font (thickness 0.3048)))
  )
  (fp_line (start -1.27 2.794) (end 1.27 2.794) (layer F.SilkS) (width 0.381))
  (fp_line (start 1.27 2.794) (end 1.27 -2.794) (layer F.SilkS) (width 0.381))
  (fp_line (start 1.27 -2.794) (end -1.27 -2.794) (layer F.SilkS) (width 0.381))
  (fp_line (start -1.27 2.794) (end -1.27 -2.794) (layer F.SilkS) (width 0.381))
  (pad 1 thru_hole circle (at 0 1.27) (size 1.524 1.524) (drill 0.8128) (layers *.Cu *.SilkS *.Mask)
    (solder_mask_margin 0.09906))
  (pad 2 thru_hole circle (at 0 -1.27) (size 1.524 1.524) (drill 0.8128) (layers *.Cu *.SilkS *.Mask))
)
