(module EEL-19H-HY1931 (layer F.Cu) (tedit 57EA719E)
  (fp_text reference REF** (at -0.075 -0.075) (layer F.SilkS)
    (effects (font (size 1 1) (thickness 0.15)))
  )
  (fp_text value EEL-19H-HY1931 (at -0.075 -2.575) (layer F.Fab)
    (effects (font (size 1 1) (thickness 0.15)))
  )
  (fp_line (start 13 9.55) (end 13.45 9.025) (layer F.SilkS) (width 0.15))
  (fp_line (start 12.95 9.75) (end 14 8.45) (layer F.SilkS) (width 0.15))
  (fp_line (start 12.95 9.925) (end 14.125 8.425) (layer F.SilkS) (width 0.15))
  (fp_line (start 12.95 10.1) (end 14.275 8.425) (layer F.SilkS) (width 0.15))
  (fp_line (start 14.45 8.425) (end 12.95 10.25) (layer F.SilkS) (width 0.15))
  (fp_line (start 12.925 10.5) (end 14.575 8.425) (layer F.SilkS) (width 0.15))
  (fp_line (start 14.75 8.45) (end 12.95 10.65) (layer F.SilkS) (width 0.15))
  (fp_line (start 12.95 10.825) (end 14.925 8.45) (layer F.SilkS) (width 0.15))
  (fp_line (start 15.075 8.45) (end 12.95 11) (layer F.SilkS) (width 0.15))
  (fp_line (start 12.95 11) (end 12.95 10.8) (layer F.SilkS) (width 0.15))
  (fp_line (start 12.95 11.175) (end 15.225 8.45) (layer F.SilkS) (width 0.15))
  (fp_line (start 13.925 8.425) (end 15.425 8.425) (layer F.SilkS) (width 0.15))
  (fp_line (start 12.925 9.425) (end 13.925 8.425) (layer F.SilkS) (width 0.15))
  (fp_line (start 12.925 11.425) (end 12.925 9.425) (layer F.SilkS) (width 0.15))
  (fp_line (start -10.5 3.5) (end 10.5 3.5) (layer F.SilkS) (width 0.15))
  (fp_line (start -10.5 -3.5) (end 10.5 -3.5) (layer F.SilkS) (width 0.15))
  (fp_line (start 10.5 -11.5) (end 10.5 11.5) (layer F.SilkS) (width 0.15))
  (fp_line (start -10.5 11.425) (end -10.5 -11.575) (layer F.SilkS) (width 0.15))
  (fp_line (start 12.925 11.425) (end -15.575 11.425) (layer F.SilkS) (width 0.15))
  (fp_line (start 15.425 -0.075) (end 15.425 8.425) (layer F.SilkS) (width 0.15))
  (fp_line (start 15.425 8.425) (end 12.925 11.425) (layer F.SilkS) (width 0.15))
  (fp_line (start -15.575 -11.575) (end -15.575 -0.075) (layer F.SilkS) (width 0.15))
  (fp_line (start -15.575 -0.075) (end -15.575 11.425) (layer F.SilkS) (width 0.15))
  (fp_line (start 15.425 -0.075) (end 15.425 -11.575) (layer F.SilkS) (width 0.15))
  (fp_line (start 15.425 -11.575) (end -15.575 -11.575) (layer F.SilkS) (width 0.15))
  (pad 3 thru_hole circle (at 12 0) (size 2 2) (drill 0.82) (layers *.Cu *.Mask))
  (pad 4 thru_hole circle (at 12 3.5) (size 2 2) (drill 0.82) (layers *.Cu *.Mask))
  (pad 5 thru_hole circle (at 12 7) (size 2 2) (drill 0.82) (layers *.Cu *.Mask))
  (pad 2 thru_hole circle (at 12 -3.5) (size 2 2) (drill 0.82) (layers *.Cu *.Mask))
  (pad 1 thru_hole circle (at 12 -8) (size 2 2) (drill 0.82) (layers *.Cu *.Mask))
  (pad 6 thru_hole circle (at -12 7) (size 2 2) (drill 0.82) (layers *.Cu *.Mask))
  (pad 7 thru_hole circle (at -12 3.5) (size 2 2) (drill 0.82) (layers *.Cu *.Mask))
  (pad 8 thru_hole circle (at -12 0) (size 2 2) (drill 0.82) (layers *.Cu *.Mask))
  (pad 9 thru_hole circle (at -12 -3.5) (size 2 2) (drill 0.82) (layers *.Cu *.Mask))
  (pad 10 thru_hole circle (at -12 -7) (size 2 2) (drill 0.82) (layers *.Cu *.Mask))
)
