(module HPS16A (layer F.Cu) (tedit 56D57DE6)
  (fp_text reference REF** (at 0 3) (layer F.SilkS)
    (effects (font (size 1 1) (thickness 0.15)))
  )
  (fp_text value HPS16A (at 0 -3) (layer F.Fab)
    (effects (font (size 1 1) (thickness 0.15)))
  )
  (fp_line (start 4 -7) (end 4 -8) (layer F.SilkS) (width 0.15))
  (fp_line (start 1 -7) (end 4 -7) (layer F.SilkS) (width 0.15))
  (fp_line (start 1 -8) (end 1 -7) (layer F.SilkS) (width 0.15))
  (fp_line (start -4 -7) (end -4 -8) (layer F.SilkS) (width 0.15))
  (fp_line (start -1 -7) (end -4 -7) (layer F.SilkS) (width 0.15))
  (fp_line (start -1 -8) (end -1 -7) (layer F.SilkS) (width 0.15))
  (fp_line (start 8 -8) (end -8 -8) (layer F.SilkS) (width 0.15))
  (fp_line (start 8 8) (end 8 -8) (layer F.SilkS) (width 0.15))
  (fp_line (start -8 8) (end 8 8) (layer F.SilkS) (width 0.15))
  (fp_line (start -8 -8) (end -8 8) (layer F.SilkS) (width 0.15))
  (pad 1 smd rect (at -7.5 0) (size 3.2 3.2) (layers F.Cu F.Paste F.Mask))
  (pad 2 smd rect (at 7.5 0) (size 3.2 3.2) (layers F.Cu F.Paste F.Mask))
  (model icool_n.3dshapes/HPA16A.wrl
    (at (xyz 0 0 0))
    (scale (xyz 6.3 6.3 6.3))
    (rotate (xyz 0 0 0))
  )
)
