(module Inductor_1212_Murata (layer F.Cu) (tedit 56D44272)
  (attr smd)
  (fp_text reference REF** (at 0 2.75) (layer F.SilkS)
    (effects (font (size 1 1) (thickness 0.15)))
  )
  (fp_text value Inductor_1212 (at 0 -2.75) (layer F.Fab)
    (effects (font (size 1 1) (thickness 0.15)))
  )
  (fp_line (start -2.25 1.6) (end -2.25 0.95) (layer F.SilkS) (width 0.15))
  (fp_line (start -2.4 2) (end -2.4 -2) (layer F.CrtYd) (width 0.05))
  (fp_line (start 2.2 2) (end -2.4 2) (layer F.CrtYd) (width 0.05))
  (fp_line (start 2.2 -2) (end 2.2 2) (layer F.CrtYd) (width 0.05))
  (fp_line (start -2.4 -2) (end 2.2 -2) (layer F.CrtYd) (width 0.05))
  (fp_line (start 1.5 1.6) (end -1.5 1.6) (layer F.SilkS) (width 0.15))
  (fp_line (start -1.5 -1.6) (end 1.5 -1.6) (layer F.SilkS) (width 0.15))
  (pad 1 smd rect (at -1.25 0) (size 1.2 2.5) (layers F.Cu F.Paste F.Mask))
  (pad 2 smd rect (at 1.25 0) (size 1.2 2.5) (layers F.Cu F.Paste F.Mask))
)
