(module LOGO_LR (layer F.Cu) (tedit 56DAF09E)
  (fp_text reference G*** (at 13 1) (layer F.SilkS) hide
    (effects (font (thickness 0.3)))
  )
  (fp_text value LOGO (at 13.5 -1.5) (layer F.SilkS) hide
    (effects (font (thickness 0.3)))
  )
  (fp_poly (pts (xy -5.08 9.821333) (xy -9.821333 9.821333) (xy -9.821333 5.757333) (xy -9.144 5.757333)
    (xy -9.144 9.144) (xy -5.757333 9.144) (xy -5.757333 5.757333) (xy -9.144 5.757333)
    (xy -9.821333 5.757333) (xy -9.821333 5.08) (xy -5.08 5.08) (xy -5.08 9.821333)) (layer F.SilkS) (width 0.01))
  (fp_poly (pts (xy -3.291785 -9.805039) (xy -3.099138 -9.690981) (xy -3.049629 -9.381393) (xy -3.048 -9.144)
    (xy -3.0196 -8.700864) (xy -2.904811 -8.505015) (xy -2.709333 -8.466667) (xy -2.426325 -8.34693)
    (xy -2.370667 -8.128) (xy -2.25093 -7.844992) (xy -2.032 -7.789333) (xy -1.810432 -7.846134)
    (xy -1.712508 -8.075712) (xy -1.693333 -8.466667) (xy -1.721734 -8.909803) (xy -1.836523 -9.105652)
    (xy -2.032 -9.144) (xy -2.315008 -9.263737) (xy -2.370667 -9.482667) (xy -2.313866 -9.704235)
    (xy -2.084289 -9.802159) (xy -1.693333 -9.821333) (xy -1.016 -9.821333) (xy -1.016 -8.128)
    (xy -1.020648 -7.3573) (xy -1.042766 -6.863929) (xy -1.094612 -6.586588) (xy -1.188446 -6.463979)
    (xy -1.336529 -6.434805) (xy -1.354667 -6.434667) (xy -1.637675 -6.31493) (xy -1.693333 -6.096)
    (xy -1.573597 -5.812992) (xy -1.354667 -5.757333) (xy -1.071659 -5.637597) (xy -1.016 -5.418667)
    (xy -0.896263 -5.135659) (xy -0.677333 -5.08) (xy -0.394325 -5.199737) (xy -0.338667 -5.418667)
    (xy -0.21893 -5.701675) (xy 0 -5.757333) (xy 0.283008 -5.87707) (xy 0.338667 -6.096)
    (xy 0.21893 -6.379008) (xy 0 -6.434667) (xy -0.283008 -6.554404) (xy -0.338667 -6.773333)
    (xy -0.281866 -6.994902) (xy -0.052289 -7.092826) (xy 0.338667 -7.112) (xy 0.781803 -7.1404)
    (xy 0.977652 -7.255189) (xy 1.016 -7.450667) (xy 0.896263 -7.733675) (xy 0.677333 -7.789333)
    (xy 0.394325 -7.90907) (xy 0.338667 -8.128) (xy 0.458403 -8.411008) (xy 0.677333 -8.466667)
    (xy 0.960341 -8.586404) (xy 1.016 -8.805333) (xy 0.896263 -9.088342) (xy 0.677333 -9.144)
    (xy 0.394325 -9.263737) (xy 0.338667 -9.482667) (xy 0.366948 -9.651405) (xy 0.49721 -9.752534)
    (xy 0.797574 -9.803085) (xy 1.336165 -9.820087) (xy 1.693333 -9.821333) (xy 2.368286 -9.814263)
    (xy 2.772802 -9.781698) (xy 2.975004 -9.706607) (xy 3.043015 -9.571959) (xy 3.048 -9.482667)
    (xy 3.1048 -9.261099) (xy 3.334378 -9.163174) (xy 3.725333 -9.144) (xy 4.402667 -9.144)
    (xy 4.402667 -8.128) (xy 4.390309 -7.560544) (xy 4.336027 -7.25392) (xy 4.214002 -7.130679)
    (xy 4.064 -7.112) (xy 3.780992 -6.992263) (xy 3.725333 -6.773333) (xy 3.605596 -6.490325)
    (xy 3.386667 -6.434667) (xy 3.197514 -6.397595) (xy 3.095306 -6.234747) (xy 3.054226 -5.868672)
    (xy 3.048 -5.418667) (xy 3.035643 -4.85121) (xy 2.98136 -4.544586) (xy 2.859335 -4.421345)
    (xy 2.709333 -4.402667) (xy 2.426325 -4.28293) (xy 2.370667 -4.064) (xy 2.25093 -3.780992)
    (xy 2.032 -3.725333) (xy 1.810432 -3.668533) (xy 1.712507 -3.438955) (xy 1.693333 -3.048)
    (xy 1.721733 -2.604864) (xy 1.836522 -2.409015) (xy 2.032 -2.370667) (xy 2.315008 -2.490404)
    (xy 2.370667 -2.709333) (xy 2.490403 -2.992342) (xy 2.709333 -3.048) (xy 2.992341 -3.167737)
    (xy 3.048 -3.386667) (xy 3.1048 -3.608235) (xy 3.334378 -3.706159) (xy 3.725333 -3.725333)
    (xy 4.168469 -3.753734) (xy 4.364318 -3.868523) (xy 4.402667 -4.064) (xy 4.522403 -4.347008)
    (xy 4.741333 -4.402667) (xy 5.024341 -4.28293) (xy 5.08 -4.064) (xy 5.1368 -3.842432)
    (xy 5.366378 -3.744508) (xy 5.757333 -3.725333) (xy 6.200469 -3.753734) (xy 6.396318 -3.868523)
    (xy 6.434667 -4.064) (xy 6.554403 -4.347008) (xy 6.773333 -4.402667) (xy 6.994901 -4.345866)
    (xy 7.092826 -4.116289) (xy 7.112 -3.725333) (xy 7.1404 -3.282197) (xy 7.255189 -3.086348)
    (xy 7.450667 -3.048) (xy 7.672235 -3.104801) (xy 7.770159 -3.334378) (xy 7.789333 -3.725333)
    (xy 7.789333 -4.402667) (xy 8.805333 -4.402667) (xy 9.37279 -4.39031) (xy 9.679414 -4.336027)
    (xy 9.802655 -4.214002) (xy 9.821333 -4.064) (xy 9.701596 -3.780992) (xy 9.482667 -3.725333)
    (xy 9.261098 -3.668533) (xy 9.163174 -3.438955) (xy 9.144 -3.048) (xy 9.1724 -2.604864)
    (xy 9.287189 -2.409015) (xy 9.482667 -2.370667) (xy 9.651405 -2.342385) (xy 9.752534 -2.212123)
    (xy 9.803084 -1.911759) (xy 9.820087 -1.373168) (xy 9.821333 -1.016) (xy 9.821333 0.338667)
    (xy 9.144 0.338667) (xy 8.700864 0.367067) (xy 8.505015 0.481856) (xy 8.466667 0.677333)
    (xy 8.586403 0.960341) (xy 8.805333 1.016) (xy 9.088341 1.135737) (xy 9.144 1.354667)
    (xy 9.263737 1.637675) (xy 9.482667 1.693333) (xy 9.704235 1.750134) (xy 9.802159 1.979711)
    (xy 9.821333 2.370667) (xy 9.792933 2.813803) (xy 9.678144 3.009652) (xy 9.482667 3.048)
    (xy 9.199658 2.928263) (xy 9.144 2.709333) (xy 9.024263 2.426325) (xy 8.805333 2.370667)
    (xy 8.583765 2.313866) (xy 8.485841 2.084288) (xy 8.466667 1.693333) (xy 8.438266 1.250197)
    (xy 8.323477 1.054348) (xy 8.128 1.016) (xy 7.844992 1.135737) (xy 7.789333 1.354667)
    (xy 7.669596 1.637675) (xy 7.450667 1.693333) (xy 7.167658 1.81307) (xy 7.112 2.032)
    (xy 7.055199 2.253568) (xy 6.825622 2.351492) (xy 6.434667 2.370667) (xy 5.99153 2.399067)
    (xy 5.795681 2.513856) (xy 5.757333 2.709333) (xy 5.785615 2.878071) (xy 5.915877 2.9792)
    (xy 6.216241 3.029751) (xy 6.754832 3.046754) (xy 7.112 3.048) (xy 8.466667 3.048)
    (xy 8.466667 4.402667) (xy 8.459596 5.07762) (xy 8.427031 5.482135) (xy 8.35194 5.684337)
    (xy 8.217292 5.752348) (xy 8.128 5.757333) (xy 7.844992 5.637596) (xy 7.789333 5.418667)
    (xy 7.669596 5.135658) (xy 7.450667 5.08) (xy 7.261514 5.117071) (xy 7.159306 5.279919)
    (xy 7.118226 5.645995) (xy 7.112 6.096) (xy 7.099643 6.663456) (xy 7.04536 6.97008)
    (xy 6.923335 7.093321) (xy 6.773333 7.112) (xy 6.490325 7.231737) (xy 6.434667 7.450667)
    (xy 6.554403 7.733675) (xy 6.773333 7.789333) (xy 7.056341 7.90907) (xy 7.112 8.128)
    (xy 6.992263 8.411008) (xy 6.773333 8.466667) (xy 6.490325 8.34693) (xy 6.434667 8.128)
    (xy 6.31493 7.844992) (xy 6.096 7.789333) (xy 5.812992 7.90907) (xy 5.757333 8.128)
    (xy 5.637596 8.411008) (xy 5.418667 8.466667) (xy 5.135658 8.586403) (xy 5.08 8.805333)
    (xy 4.960263 9.088341) (xy 4.741333 9.144) (xy 4.458325 9.263737) (xy 4.402667 9.482667)
    (xy 4.28293 9.765675) (xy 4.064 9.821333) (xy 3.842432 9.764533) (xy 3.744507 9.534955)
    (xy 3.725333 9.144) (xy 3.696933 8.700864) (xy 3.582144 8.505015) (xy 3.386667 8.466667)
    (xy 3.103658 8.586403) (xy 3.048 8.805333) (xy 2.928263 9.088341) (xy 2.709333 9.144)
    (xy 2.426325 9.263737) (xy 2.370667 9.482667) (xy 2.25093 9.765675) (xy 2.032 9.821333)
    (xy 1.748992 9.701596) (xy 1.693333 9.482667) (xy 1.573596 9.199658) (xy 1.354667 9.144)
    (xy 1.071658 9.263737) (xy 1.016 9.482667) (xy 0.992759 9.636806) (xy 0.882173 9.735481)
    (xy 0.622942 9.790949) (xy 0.153768 9.815471) (xy -0.586645 9.821305) (xy -0.677333 9.821333)
    (xy -1.448033 9.816685) (xy -1.941405 9.794568) (xy -2.218746 9.742722) (xy -2.341354 9.648887)
    (xy -2.370528 9.500804) (xy -2.370667 9.482667) (xy -2.427467 9.261098) (xy -2.657045 9.163174)
    (xy -3.048 9.144) (xy -3.491136 9.1724) (xy -3.686985 9.287189) (xy -3.725333 9.482667)
    (xy -3.84507 9.765675) (xy -4.064 9.821333) (xy -4.347008 9.701596) (xy -4.402667 9.482667)
    (xy -4.28293 9.199658) (xy -4.064 9.144) (xy -3.780992 9.024263) (xy -3.725333 8.805333)
    (xy -3.605597 8.522325) (xy -3.386667 8.466667) (xy -3.103659 8.34693) (xy -3.048 8.128)
    (xy -2.370667 8.128) (xy -2.25093 8.411008) (xy -2.032 8.466667) (xy -1.748992 8.34693)
    (xy -1.693333 8.128) (xy -1.81307 7.844992) (xy -2.032 7.789333) (xy -2.315008 7.90907)
    (xy -2.370667 8.128) (xy -3.048 8.128) (xy -3.104801 7.906432) (xy -3.334378 7.808507)
    (xy -3.725333 7.789333) (xy -4.402667 7.789333) (xy -4.402667 6.096) (xy -3.725333 6.096)
    (xy -3.668533 6.317568) (xy -3.438955 6.415492) (xy -3.048 6.434667) (xy -2.604864 6.406266)
    (xy -2.409015 6.291477) (xy -2.370667 6.096) (xy -2.427467 5.874432) (xy -2.657045 5.776507)
    (xy -3.048 5.757333) (xy -3.491136 5.785733) (xy -3.686985 5.900522) (xy -3.725333 6.096)
    (xy -4.402667 6.096) (xy -4.402667 4.741333) (xy -3.048 4.741333) (xy -2.928263 5.024341)
    (xy -2.709333 5.08) (xy -2.426325 4.960263) (xy -2.370667 4.741333) (xy -2.490404 4.458325)
    (xy -2.709333 4.402667) (xy -2.992342 4.522403) (xy -3.048 4.741333) (xy -4.402667 4.741333)
    (xy -4.402667 4.402667) (xy -5.08 4.402667) (xy -5.523136 4.374266) (xy -5.718985 4.259477)
    (xy -5.757333 4.064) (xy -4.402667 4.064) (xy -4.28293 4.347008) (xy -4.064 4.402667)
    (xy -3.780992 4.28293) (xy -3.725333 4.064) (xy -3.84507 3.780992) (xy -4.064 3.725333)
    (xy -4.347008 3.84507) (xy -4.402667 4.064) (xy -5.757333 4.064) (xy -5.637597 3.780992)
    (xy -5.418667 3.725333) (xy -5.135659 3.605596) (xy -5.08 3.386667) (xy -5.136801 3.165098)
    (xy -5.366378 3.067174) (xy -5.757333 3.048) (xy -6.20047 3.0196) (xy -6.396319 2.904811)
    (xy -6.434667 2.709333) (xy -6.554404 2.426325) (xy -6.773333 2.370667) (xy -6.994902 2.427467)
    (xy -7.092826 2.657045) (xy -7.112 3.048) (xy -7.0836 3.491136) (xy -6.968811 3.686985)
    (xy -6.773333 3.725333) (xy -6.490325 3.84507) (xy -6.434667 4.064) (xy -6.491467 4.285568)
    (xy -6.721045 4.383492) (xy -7.112 4.402667) (xy -7.555136 4.374266) (xy -7.750985 4.259477)
    (xy -7.789333 4.064) (xy -7.90907 3.780992) (xy -8.128 3.725333) (xy -8.317152 3.688262)
    (xy -8.41936 3.525414) (xy -8.460441 3.159338) (xy -8.466667 2.709333) (xy -8.479024 2.141877)
    (xy -8.533307 1.835253) (xy -8.655332 1.712012) (xy -8.805333 1.693333) (xy -9.088342 1.573596)
    (xy -9.144 1.354667) (xy -9.263737 1.071658) (xy -9.482667 1.016) (xy -9.704235 0.959199)
    (xy -9.802159 0.729622) (xy -9.804723 0.677333) (xy -9.144 0.677333) (xy -9.024263 0.960341)
    (xy -8.805333 1.016) (xy -8.522325 0.896263) (xy -8.466667 0.677333) (xy -8.429595 0.488181)
    (xy -8.266747 0.385973) (xy -7.900672 0.344893) (xy -7.450667 0.338667) (xy -6.88321 0.326309)
    (xy -6.576586 0.272027) (xy -6.453345 0.150002) (xy -6.434667 0) (xy -6.471738 -0.189152)
    (xy -6.634586 -0.29136) (xy -7.000662 -0.332441) (xy -7.450667 -0.338667) (xy -8.018123 -0.32631)
    (xy -8.324747 -0.272027) (xy -8.447988 -0.150002) (xy -8.466667 0) (xy -8.586404 0.283008)
    (xy -8.805333 0.338667) (xy -9.088342 0.458403) (xy -9.144 0.677333) (xy -9.804723 0.677333)
    (xy -9.821333 0.338667) (xy -9.805039 -0.094882) (xy -9.690981 -0.287529) (xy -9.381393 -0.337038)
    (xy -9.144 -0.338667) (xy -8.700864 -0.367067) (xy -8.505015 -0.481856) (xy -8.466667 -0.677333)
    (xy -8.523467 -0.898902) (xy -8.753045 -0.996826) (xy -9.144 -1.016) (xy -9.821333 -1.016)
    (xy -9.821333 -2.032) (xy -8.466667 -2.032) (xy -8.34693 -1.748992) (xy -8.128 -1.693333)
    (xy -7.844992 -1.573597) (xy -7.789333 -1.354667) (xy -7.669597 -1.071659) (xy -7.450667 -1.016)
    (xy -7.229099 -1.072801) (xy -7.131174 -1.302378) (xy -7.112 -1.693333) (xy -7.095706 -2.126882)
    (xy -6.981647 -2.319529) (xy -6.672059 -2.369038) (xy -6.434667 -2.370667) (xy -5.991531 -2.342267)
    (xy -5.795682 -2.227478) (xy -5.757333 -2.032) (xy -5.637597 -1.748992) (xy -5.418667 -1.693333)
    (xy -5.135659 -1.573597) (xy -5.08 -1.354667) (xy -5.199737 -1.071659) (xy -5.418667 -1.016)
    (xy -5.701675 -0.896263) (xy -5.757333 -0.677333) (xy -5.637597 -0.394325) (xy -5.418667 -0.338667)
    (xy -5.135659 -0.458404) (xy -5.08 -0.677333) (xy -5.0232 -0.898902) (xy -4.793622 -0.996826)
    (xy -4.402667 -1.016) (xy -3.959531 -1.0444) (xy -3.763682 -1.159189) (xy -3.725333 -1.354667)
    (xy -3.84507 -1.637675) (xy -4.064 -1.693333) (xy -4.347008 -1.81307) (xy -4.402667 -2.032)
    (xy -4.345866 -2.253568) (xy -4.116289 -2.351493) (xy -3.725333 -2.370667) (xy -3.048 -2.370667)
    (xy -3.048 -0.338667) (xy -3.725333 -0.338667) (xy -4.16847 -0.310267) (xy -4.364319 -0.195478)
    (xy -4.402667 0) (xy -4.459467 0.221568) (xy -4.689045 0.319492) (xy -5.08 0.338667)
    (xy -5.523136 0.367067) (xy -5.718985 0.481856) (xy -5.757333 0.677333) (xy -5.637597 0.960341)
    (xy -5.418667 1.016) (xy -5.135659 1.135737) (xy -5.08 1.354667) (xy -5.136801 1.576235)
    (xy -5.366378 1.674159) (xy -5.757333 1.693333) (xy -6.20047 1.664933) (xy -6.396319 1.550144)
    (xy -6.434667 1.354667) (xy -6.491467 1.133098) (xy -6.721045 1.035174) (xy -7.112 1.016)
    (xy -7.545549 1.032294) (xy -7.738195 1.146353) (xy -7.787705 1.455941) (xy -7.789333 1.693333)
    (xy -7.760933 2.136469) (xy -7.646144 2.332318) (xy -7.450667 2.370667) (xy -7.167659 2.25093)
    (xy -7.112 2.032) (xy -6.992263 1.748992) (xy -6.773333 1.693333) (xy -6.490325 1.81307)
    (xy -6.434667 2.032) (xy -6.377866 2.253568) (xy -6.148289 2.351492) (xy -5.757333 2.370667)
    (xy -5.314197 2.399067) (xy -5.118348 2.513856) (xy -5.08 2.709333) (xy -4.960263 2.992341)
    (xy -4.741333 3.048) (xy -4.572595 3.019718) (xy -4.471466 2.889456) (xy -4.420916 2.589092)
    (xy -4.403913 2.050501) (xy -4.402667 1.693333) (xy -4.395596 1.01838) (xy -4.363031 0.613864)
    (xy -4.28794 0.411662) (xy -4.153292 0.343651) (xy -4.064 0.338667) (xy -3.780992 0.458403)
    (xy -3.725333 0.677333) (xy -3.605597 0.960341) (xy -3.386667 1.016) (xy -3.103659 1.135737)
    (xy -3.048 1.354667) (xy -3.167737 1.637675) (xy -3.386667 1.693333) (xy -3.669675 1.81307)
    (xy -3.725333 2.032) (xy -3.605597 2.315008) (xy -3.386667 2.370667) (xy -3.165099 2.427467)
    (xy -3.067174 2.657045) (xy -3.048 3.048) (xy -3.048 3.725333) (xy -1.693333 3.725333)
    (xy -1.01838 3.718263) (xy -0.613865 3.685697) (xy -0.411663 3.610606) (xy -0.343652 3.475959)
    (xy -0.338667 3.386667) (xy -0.21893 3.103658) (xy 0 3.048) (xy 0.283008 3.167737)
    (xy 0.338667 3.386667) (xy 0.375738 3.575819) (xy 0.538586 3.678027) (xy 0.904661 3.719107)
    (xy 1.354667 3.725333) (xy 1.922123 3.73769) (xy 2.228747 3.791973) (xy 2.351988 3.913998)
    (xy 2.370667 4.064) (xy 2.333595 4.253152) (xy 2.170747 4.35536) (xy 1.804672 4.39644)
    (xy 1.354667 4.402667) (xy 0.338667 4.402667) (xy 0.338667 5.08) (xy 0.367067 5.523136)
    (xy 0.481856 5.718985) (xy 0.677333 5.757333) (xy 0.960341 5.87707) (xy 1.016 6.096)
    (xy 0.896263 6.379008) (xy 0.677333 6.434667) (xy 0.394325 6.554403) (xy 0.338667 6.773333)
    (xy 0.281866 6.994901) (xy 0.052288 7.092826) (xy -0.338667 7.112) (xy -0.781803 7.0836)
    (xy -0.977652 6.968811) (xy -1.016 6.773333) (xy -0.896263 6.490325) (xy -0.677333 6.434667)
    (xy -0.488181 6.397595) (xy -0.385973 6.234747) (xy -0.344893 5.868672) (xy -0.338667 5.418667)
    (xy -0.351024 4.85121) (xy -0.405307 4.544586) (xy -0.527332 4.421345) (xy -0.677333 4.402667)
    (xy -0.898902 4.459467) (xy -0.996826 4.689045) (xy -1.016 5.08) (xy -1.0444 5.523136)
    (xy -1.159189 5.718985) (xy -1.354667 5.757333) (xy -1.576235 5.814134) (xy -1.674159 6.043711)
    (xy -1.693333 6.434667) (xy -1.664933 6.877803) (xy -1.550144 7.073652) (xy -1.354667 7.112)
    (xy -1.071659 7.231737) (xy -1.016 7.450667) (xy -0.978929 7.639819) (xy -0.816081 7.742027)
    (xy -0.450005 7.783107) (xy 0 7.789333) (xy 0.567456 7.80169) (xy 0.87408 7.855973)
    (xy 0.997321 7.977998) (xy 1.016 8.128) (xy 0.978928 8.317152) (xy 0.81608 8.41936)
    (xy 0.450005 8.46044) (xy 0 8.466667) (xy -0.567457 8.479024) (xy -0.874081 8.533306)
    (xy -0.997322 8.655331) (xy -1.016 8.805333) (xy -0.978929 8.994485) (xy -0.816081 9.096693)
    (xy -0.450005 9.137774) (xy 0 9.144) (xy 0.567456 9.131643) (xy 0.87408 9.07736)
    (xy 0.997321 8.955335) (xy 1.016 8.805333) (xy 1.135737 8.522325) (xy 1.354667 8.466667)
    (xy 1.508806 8.443426) (xy 1.607481 8.332839) (xy 1.65131 8.128) (xy 2.370667 8.128)
    (xy 2.490403 8.411008) (xy 2.709333 8.466667) (xy 2.992341 8.34693) (xy 3.048 8.128)
    (xy 2.928263 7.844992) (xy 2.709333 7.789333) (xy 2.426325 7.90907) (xy 2.370667 8.128)
    (xy 1.65131 8.128) (xy 1.662949 8.073608) (xy 1.687471 7.604435) (xy 1.688682 7.450667)
    (xy 3.725333 7.450667) (xy 3.762405 7.639819) (xy 3.925253 7.742027) (xy 4.291328 7.783107)
    (xy 4.741333 7.789333) (xy 5.30879 7.776976) (xy 5.615414 7.722693) (xy 5.738655 7.600668)
    (xy 5.757333 7.450667) (xy 5.720262 7.261514) (xy 5.557414 7.159306) (xy 5.191338 7.118226)
    (xy 4.741333 7.112) (xy 4.173877 7.124357) (xy 3.867253 7.17864) (xy 3.744012 7.300665)
    (xy 3.725333 7.450667) (xy 1.688682 7.450667) (xy 1.693305 6.864022) (xy 1.693333 6.773333)
    (xy 1.697981 6.002633) (xy 1.720099 5.509262) (xy 1.771945 5.231921) (xy 1.865779 5.109312)
    (xy 2.013862 5.080138) (xy 2.032 5.08) (xy 2.253568 5.1368) (xy 2.351492 5.366378)
    (xy 2.370667 5.757333) (xy 2.399067 6.200469) (xy 2.513856 6.396318) (xy 2.709333 6.434667)
    (xy 2.878071 6.406385) (xy 2.9792 6.276123) (xy 3.029751 5.975759) (xy 3.046754 5.437168)
    (xy 3.048 5.08) (xy 3.048 4.402667) (xy 4.402667 4.402667) (xy 4.402667 6.434667)
    (xy 6.434667 6.434667) (xy 6.434667 4.402667) (xy 4.402667 4.402667) (xy 3.048 4.402667)
    (xy 3.048 4.064) (xy 7.112 4.064) (xy 7.231737 4.347008) (xy 7.450667 4.402667)
    (xy 7.733675 4.28293) (xy 7.789333 4.064) (xy 7.669596 3.780992) (xy 7.450667 3.725333)
    (xy 7.167658 3.84507) (xy 7.112 4.064) (xy 3.048 4.064) (xy 3.048 3.725333)
    (xy 4.402667 3.725333) (xy 5.07762 3.718263) (xy 5.482135 3.685697) (xy 5.684337 3.610606)
    (xy 5.752348 3.475959) (xy 5.757333 3.386667) (xy 5.700533 3.165098) (xy 5.470955 3.067174)
    (xy 5.08 3.048) (xy 4.636864 3.0196) (xy 4.441015 2.904811) (xy 4.402667 2.709333)
    (xy 4.28293 2.426325) (xy 4.064 2.370667) (xy 3.780992 2.490403) (xy 3.725333 2.709333)
    (xy 3.605596 2.992341) (xy 3.386667 3.048) (xy 3.103658 3.167737) (xy 3.048 3.386667)
    (xy 2.928263 3.669675) (xy 2.709333 3.725333) (xy 2.487765 3.668533) (xy 2.389841 3.438955)
    (xy 2.370667 3.048) (xy 2.399067 2.604864) (xy 2.513856 2.409015) (xy 2.709333 2.370667)
    (xy 2.992341 2.25093) (xy 3.048 2.032) (xy 3.1048 1.810432) (xy 3.334378 1.712507)
    (xy 3.725333 1.693333) (xy 4.168469 1.664933) (xy 4.364318 1.550144) (xy 4.402667 1.354667)
    (xy 4.522403 1.071658) (xy 4.741333 1.016) (xy 4.962901 1.0728) (xy 5.060826 1.302378)
    (xy 5.08 1.693333) (xy 5.1084 2.136469) (xy 5.223189 2.332318) (xy 5.418667 2.370667)
    (xy 5.701675 2.25093) (xy 5.757333 2.032) (xy 5.814134 1.810432) (xy 6.043711 1.712507)
    (xy 6.434667 1.693333) (xy 6.877803 1.664933) (xy 7.073652 1.550144) (xy 7.112 1.354667)
    (xy 7.231737 1.071658) (xy 7.450667 1.016) (xy 7.733675 0.896263) (xy 7.789333 0.677333)
    (xy 7.732533 0.455765) (xy 7.502955 0.357841) (xy 7.112 0.338667) (xy 6.678451 0.322372)
    (xy 6.485805 0.208314) (xy 6.436295 -0.101274) (xy 6.434667 -0.338667) (xy 6.434667 -1.016)
    (xy 7.450667 -1.016) (xy 8.018123 -1.028357) (xy 8.324747 -1.08264) (xy 8.447988 -1.204665)
    (xy 8.466667 -1.354667) (xy 8.586403 -1.637675) (xy 8.805333 -1.693333) (xy 9.088341 -1.81307)
    (xy 9.144 -2.032) (xy 9.115718 -2.200738) (xy 8.985456 -2.301867) (xy 8.685092 -2.352418)
    (xy 8.146501 -2.369421) (xy 7.789333 -2.370667) (xy 7.11438 -2.377737) (xy 6.709864 -2.410303)
    (xy 6.507662 -2.485394) (xy 6.439651 -2.620041) (xy 6.434667 -2.709333) (xy 6.377866 -2.930902)
    (xy 6.148288 -3.028826) (xy 5.757333 -3.048) (xy 5.314197 -3.0196) (xy 5.118348 -2.904811)
    (xy 5.08 -2.709333) (xy 4.960263 -2.426325) (xy 4.741333 -2.370667) (xy 4.458325 -2.490404)
    (xy 4.402667 -2.709333) (xy 4.345866 -2.930902) (xy 4.116288 -3.028826) (xy 3.725333 -3.048)
    (xy 3.282197 -3.0196) (xy 3.086348 -2.904811) (xy 3.048 -2.709333) (xy 2.928263 -2.426325)
    (xy 2.709333 -2.370667) (xy 2.426325 -2.25093) (xy 2.370667 -2.032) (xy 2.25093 -1.748992)
    (xy 2.032 -1.693333) (xy 1.748992 -1.573597) (xy 1.693333 -1.354667) (xy 1.81307 -1.071659)
    (xy 2.032 -1.016) (xy 2.315008 -1.135737) (xy 2.370667 -1.354667) (xy 2.490403 -1.637675)
    (xy 2.709333 -1.693333) (xy 2.992341 -1.81307) (xy 3.048 -2.032) (xy 3.1048 -2.253568)
    (xy 3.334378 -2.351493) (xy 3.725333 -2.370667) (xy 4.168469 -2.342267) (xy 4.364318 -2.227478)
    (xy 4.402667 -2.032) (xy 4.28293 -1.748992) (xy 4.064 -1.693333) (xy 3.780992 -1.573597)
    (xy 3.725333 -1.354667) (xy 3.605596 -1.071659) (xy 3.386667 -1.016) (xy 3.103658 -0.896263)
    (xy 3.048 -0.677333) (xy 2.928263 -0.394325) (xy 2.709333 -0.338667) (xy 2.426325 -0.21893)
    (xy 2.370667 0) (xy 2.313866 0.221568) (xy 2.084288 0.319492) (xy 1.693333 0.338667)
    (xy 1.259785 0.322372) (xy 1.067138 0.208314) (xy 1.017629 -0.101274) (xy 1.016 -0.338667)
    (xy 0.9876 -0.781803) (xy 0.872811 -0.977652) (xy 0.677333 -1.016) (xy 0.394325 -1.135737)
    (xy 0.338667 -1.354667) (xy 0.458403 -1.637675) (xy 0.677333 -1.693333) (xy 0.960341 -1.81307)
    (xy 1.016 -2.032) (xy 0.896263 -2.315008) (xy 0.677333 -2.370667) (xy 0.394325 -2.490404)
    (xy 0.338667 -2.709333) (xy 0.458403 -2.992342) (xy 0.677333 -3.048) (xy 0.960341 -3.167737)
    (xy 1.016 -3.386667) (xy 1.135737 -3.669675) (xy 1.354667 -3.725333) (xy 1.637675 -3.84507)
    (xy 1.693333 -4.064) (xy 1.81307 -4.347008) (xy 2.032 -4.402667) (xy 2.221152 -4.439738)
    (xy 2.32336 -4.602586) (xy 2.36444 -4.968662) (xy 2.370667 -5.418667) (xy 2.383024 -5.986123)
    (xy 2.437306 -6.292747) (xy 2.559331 -6.415988) (xy 2.709333 -6.434667) (xy 2.878071 -6.462949)
    (xy 2.9792 -6.59321) (xy 3.029751 -6.893575) (xy 3.046754 -7.432165) (xy 3.048 -7.789333)
    (xy 3.048 -9.144) (xy 2.370667 -9.144) (xy 1.937118 -9.127706) (xy 1.744471 -9.013647)
    (xy 1.694962 -8.704059) (xy 1.693333 -8.466667) (xy 1.721733 -8.023531) (xy 1.836522 -7.827682)
    (xy 2.032 -7.789333) (xy 2.253568 -7.732533) (xy 2.351492 -7.502955) (xy 2.370667 -7.112)
    (xy 2.342266 -6.668864) (xy 2.227477 -6.473015) (xy 2.032 -6.434667) (xy 1.842848 -6.397595)
    (xy 1.74064 -6.234747) (xy 1.699559 -5.868672) (xy 1.693333 -5.418667) (xy 1.693333 -4.402667)
    (xy 1.016 -4.402667) (xy 0.572864 -4.431067) (xy 0.377015 -4.545856) (xy 0.338667 -4.741333)
    (xy 0.458403 -5.024342) (xy 0.677333 -5.08) (xy 0.960341 -5.199737) (xy 1.016 -5.418667)
    (xy 0.896263 -5.701675) (xy 0.677333 -5.757333) (xy 0.394325 -5.637597) (xy 0.338667 -5.418667)
    (xy 0.21893 -5.135659) (xy 0 -5.08) (xy -0.142961 -5.060064) (xy -0.238834 -4.96284)
    (xy -0.296973 -4.732206) (xy -0.326731 -4.312041) (xy -0.337463 -3.646222) (xy -0.338667 -3.048)
    (xy -0.335344 -2.190236) (xy -0.31914 -1.614998) (xy -0.280701 -1.266164) (xy -0.210674 -1.087612)
    (xy -0.099704 -1.023221) (xy 0 -1.016) (xy 0.283008 -0.896263) (xy 0.338667 -0.677333)
    (xy 0.21893 -0.394325) (xy 0 -0.338667) (xy -0.283008 -0.21893) (xy -0.338667 0)
    (xy -0.458404 0.283008) (xy -0.677333 0.338667) (xy -0.960342 0.21893) (xy -1.016 0)
    (xy -1.135737 -0.283008) (xy -1.354667 -0.338667) (xy -1.637675 -0.458404) (xy -1.693333 -0.677333)
    (xy -1.573597 -0.960342) (xy -1.354667 -1.016) (xy -1.071659 -1.135737) (xy -1.016 -1.354667)
    (xy -1.135737 -1.637675) (xy -1.354667 -1.693333) (xy -1.637675 -1.81307) (xy -1.693333 -2.032)
    (xy -1.573597 -2.315008) (xy -1.354667 -2.370667) (xy -1.071659 -2.490404) (xy -1.016 -2.709333)
    (xy -1.135737 -2.992342) (xy -1.354667 -3.048) (xy -1.576235 -3.104801) (xy -1.674159 -3.334378)
    (xy -1.693333 -3.725333) (xy -1.664933 -4.16847) (xy -1.550144 -4.364319) (xy -1.354667 -4.402667)
    (xy -1.071659 -4.522404) (xy -1.016 -4.741333) (xy -1.135737 -5.024342) (xy -1.354667 -5.08)
    (xy -1.637675 -5.199737) (xy -1.693333 -5.418667) (xy -1.81307 -5.701675) (xy -2.032 -5.757333)
    (xy -2.315008 -5.637597) (xy -2.370667 -5.418667) (xy -2.25093 -5.135659) (xy -2.032 -5.08)
    (xy -1.748992 -4.960263) (xy -1.693333 -4.741333) (xy -1.81307 -4.458325) (xy -2.032 -4.402667)
    (xy -2.221152 -4.365595) (xy -2.32336 -4.202747) (xy -2.364441 -3.836672) (xy -2.370667 -3.386667)
    (xy -2.383024 -2.81921) (xy -2.437307 -2.512586) (xy -2.559332 -2.389345) (xy -2.709333 -2.370667)
    (xy -2.992342 -2.490404) (xy -3.048 -2.709333) (xy -3.085072 -2.898486) (xy -3.24792 -3.000694)
    (xy -3.613995 -3.041774) (xy -4.064 -3.048) (xy -4.631457 -3.060357) (xy -4.938081 -3.11464)
    (xy -5.061322 -3.236665) (xy -5.08 -3.386667) (xy -5.117072 -3.575819) (xy -5.27992 -3.678027)
    (xy -5.645995 -3.719107) (xy -6.096 -3.725333) (xy -6.663457 -3.712976) (xy -6.970081 -3.658694)
    (xy -7.093322 -3.536669) (xy -7.112 -3.386667) (xy -7.231737 -3.103659) (xy -7.450667 -3.048)
    (xy -7.733675 -2.928263) (xy -7.789333 -2.709333) (xy -7.90907 -2.426325) (xy -8.128 -2.370667)
    (xy -8.411008 -2.25093) (xy -8.466667 -2.032) (xy -9.821333 -2.032) (xy -9.808976 -2.599457)
    (xy -9.754694 -2.906081) (xy -9.632669 -3.029322) (xy -9.482667 -3.048) (xy -9.199659 -2.928263)
    (xy -9.144 -2.709333) (xy -9.024263 -2.426325) (xy -8.805333 -2.370667) (xy -8.522325 -2.490404)
    (xy -8.466667 -2.709333) (xy -8.34693 -2.992342) (xy -8.128 -3.048) (xy -7.906432 -3.104801)
    (xy -7.808508 -3.334378) (xy -7.789333 -3.725333) (xy -7.789333 -4.402667) (xy -5.757333 -4.402667)
    (xy -4.899569 -4.399344) (xy -4.324331 -4.38314) (xy -3.975497 -4.344701) (xy -3.796946 -4.274674)
    (xy -3.732554 -4.163704) (xy -3.725333 -4.064) (xy -3.605597 -3.780992) (xy -3.386667 -3.725333)
    (xy -3.197515 -3.762405) (xy -3.095307 -3.925253) (xy -3.054226 -4.291328) (xy -3.048 -4.741333)
    (xy -3.035643 -5.30879) (xy -2.98136 -5.615414) (xy -2.859335 -5.738655) (xy -2.709333 -5.757333)
    (xy -2.426325 -5.87707) (xy -2.370667 -6.096) (xy -2.25093 -6.379008) (xy -2.032 -6.434667)
    (xy -1.748992 -6.554404) (xy -1.693333 -6.773333) (xy -1.81307 -7.056342) (xy -2.032 -7.112)
    (xy -2.315008 -7.231737) (xy -2.370667 -7.450667) (xy -2.407738 -7.639819) (xy -2.570586 -7.742027)
    (xy -2.936662 -7.783107) (xy -3.386667 -7.789333) (xy -4.402667 -7.789333) (xy -4.402667 -9.821333)
    (xy -3.725333 -9.821333) (xy -3.291785 -9.805039)) (layer F.SilkS) (width 0.01))
  (fp_poly (pts (xy 8.909803 7.1404) (xy 9.105652 7.255189) (xy 9.144 7.450667) (xy 9.263737 7.733675)
    (xy 9.482667 7.789333) (xy 9.704235 7.846134) (xy 9.802159 8.075711) (xy 9.821333 8.466667)
    (xy 9.792933 8.909803) (xy 9.678144 9.105652) (xy 9.482667 9.144) (xy 9.199658 9.024263)
    (xy 9.144 8.805333) (xy 9.024263 8.522325) (xy 8.805333 8.466667) (xy 8.522325 8.586403)
    (xy 8.466667 8.805333) (xy 8.34693 9.088341) (xy 8.128 9.144) (xy 7.844992 9.263737)
    (xy 7.789333 9.482667) (xy 7.732533 9.704235) (xy 7.502955 9.802159) (xy 7.112 9.821333)
    (xy 6.668864 9.792933) (xy 6.473015 9.678144) (xy 6.434667 9.482667) (xy 6.491467 9.261098)
    (xy 6.721045 9.163174) (xy 7.112 9.144) (xy 7.555136 9.1156) (xy 7.750985 9.000811)
    (xy 7.789333 8.805333) (xy 7.90907 8.522325) (xy 8.128 8.466667) (xy 8.411008 8.34693)
    (xy 8.466667 8.128) (xy 8.34693 7.844992) (xy 8.128 7.789333) (xy 7.844992 7.669596)
    (xy 7.789333 7.450667) (xy 7.846134 7.229098) (xy 8.075711 7.131174) (xy 8.466667 7.112)
    (xy 8.909803 7.1404)) (layer F.SilkS) (width 0.01))
  (fp_poly (pts (xy 9.765675 5.87707) (xy 9.821333 6.096) (xy 9.701596 6.379008) (xy 9.482667 6.434667)
    (xy 9.199658 6.31493) (xy 9.144 6.096) (xy 9.263737 5.812992) (xy 9.482667 5.757333)
    (xy 9.765675 5.87707)) (layer F.SilkS) (width 0.01))
  (fp_poly (pts (xy 9.765675 4.522403) (xy 9.821333 4.741333) (xy 9.701596 5.024341) (xy 9.482667 5.08)
    (xy 9.199658 4.960263) (xy 9.144 4.741333) (xy 9.263737 4.458325) (xy 9.482667 4.402667)
    (xy 9.765675 4.522403)) (layer F.SilkS) (width 0.01))
  (fp_poly (pts (xy -9.199659 -4.28293) (xy -9.144 -4.064) (xy -9.263737 -3.780992) (xy -9.482667 -3.725333)
    (xy -9.765675 -3.84507) (xy -9.821333 -4.064) (xy -9.701597 -4.347008) (xy -9.482667 -4.402667)
    (xy -9.199659 -4.28293)) (layer F.SilkS) (width 0.01))
  (fp_poly (pts (xy -5.08 -5.08) (xy -9.821333 -5.08) (xy -9.821333 -9.144) (xy -9.144 -9.144)
    (xy -9.144 -5.757333) (xy -5.757333 -5.757333) (xy -5.757333 -9.144) (xy -9.144 -9.144)
    (xy -9.821333 -9.144) (xy -9.821333 -9.821333) (xy -5.08 -9.821333) (xy -5.08 -5.08)) (layer F.SilkS) (width 0.01))
  (fp_poly (pts (xy -3.780992 -5.637597) (xy -3.725333 -5.418667) (xy -3.84507 -5.135659) (xy -4.064 -5.08)
    (xy -4.347008 -5.199737) (xy -4.402667 -5.418667) (xy -4.28293 -5.701675) (xy -4.064 -5.757333)
    (xy -3.780992 -5.637597)) (layer F.SilkS) (width 0.01))
  (fp_poly (pts (xy 4.347008 -5.637597) (xy 4.402667 -5.418667) (xy 4.28293 -5.135659) (xy 4.064 -5.08)
    (xy 3.780992 -5.199737) (xy 3.725333 -5.418667) (xy 3.84507 -5.701675) (xy 4.064 -5.757333)
    (xy 4.347008 -5.637597)) (layer F.SilkS) (width 0.01))
  (fp_poly (pts (xy 9.821333 -5.08) (xy 5.08 -5.08) (xy 5.08 -9.144) (xy 5.757333 -9.144)
    (xy 5.757333 -5.757333) (xy 9.144 -5.757333) (xy 9.144 -9.144) (xy 5.757333 -9.144)
    (xy 5.08 -9.144) (xy 5.08 -9.821333) (xy 9.821333 -9.821333) (xy 9.821333 -5.08)) (layer F.SilkS) (width 0.01))
  (fp_poly (pts (xy -3.780992 -6.992263) (xy -3.725333 -6.773333) (xy -3.84507 -6.490325) (xy -4.064 -6.434667)
    (xy -4.347008 -6.554404) (xy -4.402667 -6.773333) (xy -4.28293 -7.056342) (xy -4.064 -7.112)
    (xy -3.780992 -6.992263)) (layer F.SilkS) (width 0.01))
  (fp_poly (pts (xy -6.434667 8.466667) (xy -8.466667 8.466667) (xy -8.466667 6.434667) (xy -6.434667 6.434667)
    (xy -6.434667 8.466667)) (layer F.SilkS) (width 0.01))
  (fp_poly (pts (xy -1.748992 2.490403) (xy -1.693333 2.709333) (xy -1.81307 2.992341) (xy -2.032 3.048)
    (xy -2.315008 2.928263) (xy -2.370667 2.709333) (xy -2.25093 2.426325) (xy -2.032 2.370667)
    (xy -1.748992 2.490403)) (layer F.SilkS) (width 0.01))
  (fp_poly (pts (xy 0.960341 0.458403) (xy 1.016 0.677333) (xy 1.135737 0.960341) (xy 1.354667 1.016)
    (xy 1.637675 1.135737) (xy 1.693333 1.354667) (xy 1.81307 1.637675) (xy 2.032 1.693333)
    (xy 2.315008 1.81307) (xy 2.370667 2.032) (xy 2.313866 2.253568) (xy 2.084288 2.351492)
    (xy 1.693333 2.370667) (xy 1.250197 2.399067) (xy 1.054348 2.513856) (xy 1.016 2.709333)
    (xy 0.896263 2.992341) (xy 0.677333 3.048) (xy 0.394325 2.928263) (xy 0.338667 2.709333)
    (xy 0.281866 2.487765) (xy 0.052288 2.389841) (xy -0.338667 2.370667) (xy -0.781803 2.342266)
    (xy -0.977652 2.227477) (xy -1.016 2.032) (xy -0.896263 1.748992) (xy -0.677333 1.693333)
    (xy 0.338667 1.693333) (xy 0.367067 2.136469) (xy 0.481856 2.332318) (xy 0.677333 2.370667)
    (xy 0.898901 2.313866) (xy 0.996826 2.084288) (xy 1.016 1.693333) (xy 0.9876 1.250197)
    (xy 0.872811 1.054348) (xy 0.677333 1.016) (xy 0.455765 1.0728) (xy 0.357841 1.302378)
    (xy 0.338667 1.693333) (xy -0.677333 1.693333) (xy -0.394325 1.573596) (xy -0.338667 1.354667)
    (xy -0.21893 1.071658) (xy 0 1.016) (xy 0.283008 0.896263) (xy 0.338667 0.677333)
    (xy 0.458403 0.394325) (xy 0.677333 0.338667) (xy 0.960341 0.458403)) (layer F.SilkS) (width 0.01))
  (fp_poly (pts (xy -2.426325 -0.21893) (xy -2.370667 0) (xy -2.313866 0.221568) (xy -2.084289 0.319492)
    (xy -1.693333 0.338667) (xy -1.250197 0.367067) (xy -1.054348 0.481856) (xy -1.016 0.677333)
    (xy -1.053072 0.866485) (xy -1.21592 0.968693) (xy -1.581995 1.009774) (xy -2.032 1.016)
    (xy -3.048 1.016) (xy -3.048 0.338667) (xy -3.0196 -0.10447) (xy -2.904811 -0.300319)
    (xy -2.709333 -0.338667) (xy -2.426325 -0.21893)) (layer F.SilkS) (width 0.01))
  (fp_poly (pts (xy 6.379008 -2.25093) (xy 6.434667 -2.032) (xy 6.31493 -1.748992) (xy 6.096 -1.693333)
    (xy 5.927262 -1.665052) (xy 5.826133 -1.53479) (xy 5.775582 -1.234426) (xy 5.758579 -0.695835)
    (xy 5.757333 -0.338667) (xy 5.750263 0.336286) (xy 5.717697 0.740802) (xy 5.642606 0.943004)
    (xy 5.507959 1.011015) (xy 5.418667 1.016) (xy 5.135658 0.896263) (xy 5.08 0.677333)
    (xy 5.023199 0.455765) (xy 4.793622 0.357841) (xy 4.402667 0.338667) (xy 3.95953 0.367067)
    (xy 3.763681 0.481856) (xy 3.725333 0.677333) (xy 3.668533 0.898901) (xy 3.438955 0.996826)
    (xy 3.048 1.016) (xy 2.604864 0.9876) (xy 2.409015 0.872811) (xy 2.370667 0.677333)
    (xy 2.490403 0.394325) (xy 2.709333 0.338667) (xy 2.992341 0.21893) (xy 3.048 0)
    (xy 3.1048 -0.221568) (xy 3.334378 -0.319493) (xy 3.725333 -0.338667) (xy 4.158882 -0.354961)
    (xy 4.351528 -0.46902) (xy 4.401038 -0.778608) (xy 4.402667 -1.016) (xy 4.418961 -1.449549)
    (xy 4.533019 -1.642195) (xy 4.842607 -1.691705) (xy 5.08 -1.693333) (xy 5.523136 -1.721734)
    (xy 5.718985 -1.836523) (xy 5.757333 -2.032) (xy 5.87707 -2.315008) (xy 6.096 -2.370667)
    (xy 6.379008 -2.25093)) (layer F.SilkS) (width 0.01))
  (fp_poly (pts (xy -1.748992 -1.573597) (xy -1.693333 -1.354667) (xy -1.81307 -1.071659) (xy -2.032 -1.016)
    (xy -2.315008 -1.135737) (xy -2.370667 -1.354667) (xy -2.25093 -1.637675) (xy -2.032 -1.693333)
    (xy -1.748992 -1.573597)) (layer F.SilkS) (width 0.01))
  (fp_poly (pts (xy -5.135659 -2.928263) (xy -5.08 -2.709333) (xy -5.199737 -2.426325) (xy -5.418667 -2.370667)
    (xy -5.701675 -2.490404) (xy -5.757333 -2.709333) (xy -5.637597 -2.992342) (xy -5.418667 -3.048)
    (xy -5.135659 -2.928263)) (layer F.SilkS) (width 0.01))
  (fp_poly (pts (xy 5.701675 5.199737) (xy 5.757333 5.418667) (xy 5.637596 5.701675) (xy 5.418667 5.757333)
    (xy 5.135658 5.637596) (xy 5.08 5.418667) (xy 5.199737 5.135658) (xy 5.418667 5.08)
    (xy 5.701675 5.199737)) (layer F.SilkS) (width 0.01))
  (fp_poly (pts (xy -6.434667 -6.434667) (xy -8.466667 -6.434667) (xy -8.466667 -8.466667) (xy -6.434667 -8.466667)
    (xy -6.434667 -6.434667)) (layer F.SilkS) (width 0.01))
  (fp_poly (pts (xy 8.466667 -6.434667) (xy 6.434667 -6.434667) (xy 6.434667 -8.466667) (xy 8.466667 -8.466667)
    (xy 8.466667 -6.434667)) (layer F.SilkS) (width 0.01))
)
