(module Pin_Header_Angled_1x07_Pitch2.54mm_pad1x1.4_L (layer F.Cu) (tedit 5969CB8F)
  (descr "Through hole angled pin header, 1x07, 2.54mm pitch, 6mm pin length, single row")
  (tags "Through hole angled pin header THT 1x07 2.54mm single row")
  (fp_text reference REF** (at -4.361588 17.571554 180) (layer F.SilkS)
    (effects (font (size 1 1) (thickness 0.15)))
  )
  (fp_text value Pin_Header_Angled_1x07_Pitch2.54mm_L (at 4.385 17.51) (layer F.Fab)
    (effects (font (size 1 1) (thickness 0.15)))
  )
  (fp_line (start -2.111588 16.571554) (end -4.016588 16.571554) (layer F.Fab) (width 0.1))
  (fp_line (start -4.016588 16.571554) (end -4.016588 -1.208446) (layer F.Fab) (width 0.1))
  (fp_line (start -4.016588 -1.208446) (end -1.476588 -1.208446) (layer F.Fab) (width 0.1))
  (fp_line (start -1.476588 -1.208446) (end -1.476588 15.936554) (layer F.Fab) (width 0.1))
  (fp_line (start -1.476588 15.936554) (end -2.111588 16.571554) (layer F.Fab) (width 0.1))
  (fp_line (start 0.509016 15.582746) (end -1.310984 15.582746) (layer F.Fab) (width 0.1))
  (fp_line (start 0.509016 14.942746) (end -1.310984 14.942746) (layer F.Fab) (width 0.1))
  (fp_line (start -4.016588 15.621554) (end -10.016588 15.621554) (layer F.Fab) (width 0.1))
  (fp_line (start -10.016588 15.621554) (end -10.016588 14.981554) (layer F.Fab) (width 0.1))
  (fp_line (start -4.016588 14.981554) (end -10.016588 14.981554) (layer F.Fab) (width 0.1))
  (fp_line (start 0.509016 13.042746) (end -1.310984 13.042746) (layer F.Fab) (width 0.1))
  (fp_line (start 0.509016 13.042746) (end 0.509016 12.402746) (layer F.Fab) (width 0.1))
  (fp_line (start 0.509016 12.402746) (end -1.310984 12.402746) (layer F.Fab) (width 0.1))
  (fp_line (start -4.016588 13.081554) (end -10.016588 13.081554) (layer F.Fab) (width 0.1))
  (fp_line (start -10.016588 13.081554) (end -10.016588 12.441554) (layer F.Fab) (width 0.1))
  (fp_line (start -4.016588 12.441554) (end -10.016588 12.441554) (layer F.Fab) (width 0.1))
  (fp_line (start 0.509016 10.502746) (end -1.310984 10.502746) (layer F.Fab) (width 0.1))
  (fp_line (start 0.509016 10.502746) (end 0.509016 9.862746) (layer F.Fab) (width 0.1))
  (fp_line (start 0.509016 9.862746) (end -1.310984 9.862746) (layer F.Fab) (width 0.1))
  (fp_line (start -4.016588 10.541554) (end -10.016588 10.541554) (layer F.Fab) (width 0.1))
  (fp_line (start -10.016588 10.541554) (end -10.016588 9.901554) (layer F.Fab) (width 0.1))
  (fp_line (start -4.016588 9.901554) (end -10.016588 9.901554) (layer F.Fab) (width 0.1))
  (fp_line (start 0.509016 7.962746) (end -1.310984 7.962746) (layer F.Fab) (width 0.1))
  (fp_line (start 0.509016 7.962746) (end 0.509016 7.322746) (layer F.Fab) (width 0.1))
  (fp_line (start 0.509016 7.322746) (end -1.310984 7.322746) (layer F.Fab) (width 0.1))
  (fp_line (start -4.016588 8.001554) (end -10.016588 8.001554) (layer F.Fab) (width 0.1))
  (fp_line (start -10.016588 8.001554) (end -10.016588 7.361554) (layer F.Fab) (width 0.1))
  (fp_line (start -4.016588 7.361554) (end -10.016588 7.361554) (layer F.Fab) (width 0.1))
  (fp_line (start 0.509016 5.422746) (end -1.310984 5.422746) (layer F.Fab) (width 0.1))
  (fp_line (start 0.509016 5.422746) (end 0.509016 4.782746) (layer F.Fab) (width 0.1))
  (fp_line (start 0.509016 4.782746) (end -1.310984 4.782746) (layer F.Fab) (width 0.1))
  (fp_line (start -4.016588 5.461554) (end -10.016588 5.461554) (layer F.Fab) (width 0.1))
  (fp_line (start -10.016588 5.461554) (end -10.016588 4.821554) (layer F.Fab) (width 0.1))
  (fp_line (start -4.016588 4.821554) (end -10.016588 4.821554) (layer F.Fab) (width 0.1))
  (fp_line (start 0.509016 2.882746) (end -1.310984 2.882746) (layer F.Fab) (width 0.1))
  (fp_line (start 0.509016 2.882746) (end 0.509016 2.242746) (layer F.Fab) (width 0.1))
  (fp_line (start 0.509016 2.242746) (end -1.310984 2.242746) (layer F.Fab) (width 0.1))
  (fp_line (start -4.016588 2.921554) (end -10.016588 2.921554) (layer F.Fab) (width 0.1))
  (fp_line (start -10.016588 2.921554) (end -10.016588 2.281554) (layer F.Fab) (width 0.1))
  (fp_line (start -4.016588 2.281554) (end -10.016588 2.281554) (layer F.Fab) (width 0.1))
  (fp_line (start 0.509016 0.342746) (end -1.310984 0.342746) (layer F.Fab) (width 0.1))
  (fp_line (start 0.509016 0.342746) (end 0.509016 -0.297254) (layer F.Fab) (width 0.1))
  (fp_line (start 0.509016 -0.297254) (end -1.310984 -0.297254) (layer F.Fab) (width 0.1))
  (fp_line (start -4.016588 0.381554) (end -10.016588 0.381554) (layer F.Fab) (width 0.1))
  (fp_line (start -10.016588 0.381554) (end -10.016588 -0.258446) (layer F.Fab) (width 0.1))
  (fp_line (start -4.016588 -0.258446) (end -10.016588 -0.258446) (layer F.Fab) (width 0.1))
  (fp_line (start -1.416588 16.631554) (end -1.416588 -1.268446) (layer F.SilkS) (width 0.12))
  (fp_line (start -1.416588 -1.268446) (end -4.076588 -1.268446) (layer F.SilkS) (width 0.12))
  (fp_line (start -4.076588 -1.268446) (end -4.076588 16.631554) (layer F.SilkS) (width 0.12))
  (fp_line (start -4.076588 16.631554) (end -1.416588 16.631554) (layer F.SilkS) (width 0.12))
  (fp_line (start -4.076588 15.681554) (end -10.076588 15.681554) (layer F.SilkS) (width 0.12))
  (fp_line (start -10.076588 15.681554) (end -10.076588 14.921554) (layer F.SilkS) (width 0.12))
  (fp_line (start -10.076588 14.921554) (end -4.076588 14.921554) (layer F.SilkS) (width 0.12))
  (fp_line (start -4.076588 15.621554) (end -10.076588 15.621554) (layer F.SilkS) (width 0.12))
  (fp_line (start -4.076588 15.501554) (end -10.076588 15.501554) (layer F.SilkS) (width 0.12))
  (fp_line (start -4.076588 15.381554) (end -10.076588 15.381554) (layer F.SilkS) (width 0.12))
  (fp_line (start -4.076588 15.261554) (end -10.076588 15.261554) (layer F.SilkS) (width 0.12))
  (fp_line (start -4.076588 15.141554) (end -10.076588 15.141554) (layer F.SilkS) (width 0.12))
  (fp_line (start -4.076588 15.021554) (end -10.076588 15.021554) (layer F.SilkS) (width 0.12))
  (fp_line (start -1.086588 15.681554) (end -1.416588 15.681554) (layer F.SilkS) (width 0.12))
  (fp_line (start -1.086588 14.921554) (end -1.416588 14.921554) (layer F.SilkS) (width 0.12))
  (fp_line (start -1.416588 14.031554) (end -4.076588 14.031554) (layer F.SilkS) (width 0.12))
  (fp_line (start -4.076588 13.141554) (end -10.076588 13.141554) (layer F.SilkS) (width 0.12))
  (fp_line (start -10.076588 13.141554) (end -10.076588 12.381554) (layer F.SilkS) (width 0.12))
  (fp_line (start -10.076588 12.381554) (end -4.076588 12.381554) (layer F.SilkS) (width 0.12))
  (fp_line (start -1.019517 13.141554) (end -1.416588 13.141554) (layer F.SilkS) (width 0.12))
  (fp_line (start -1.019517 12.381554) (end -1.416588 12.381554) (layer F.SilkS) (width 0.12))
  (fp_line (start -1.416588 11.491554) (end -4.076588 11.491554) (layer F.SilkS) (width 0.12))
  (fp_line (start -4.076588 10.601554) (end -10.076588 10.601554) (layer F.SilkS) (width 0.12))
  (fp_line (start -10.076588 10.601554) (end -10.076588 9.841554) (layer F.SilkS) (width 0.12))
  (fp_line (start -10.076588 9.841554) (end -4.076588 9.841554) (layer F.SilkS) (width 0.12))
  (fp_line (start -1.019517 10.601554) (end -1.416588 10.601554) (layer F.SilkS) (width 0.12))
  (fp_line (start -1.019517 9.841554) (end -1.416588 9.841554) (layer F.SilkS) (width 0.12))
  (fp_line (start -1.416588 8.951554) (end -4.076588 8.951554) (layer F.SilkS) (width 0.12))
  (fp_line (start -4.076588 8.061554) (end -10.076588 8.061554) (layer F.SilkS) (width 0.12))
  (fp_line (start -10.076588 8.061554) (end -10.076588 7.301554) (layer F.SilkS) (width 0.12))
  (fp_line (start -10.076588 7.301554) (end -4.076588 7.301554) (layer F.SilkS) (width 0.12))
  (fp_line (start -1.019517 8.061554) (end -1.416588 8.061554) (layer F.SilkS) (width 0.12))
  (fp_line (start -1.019517 7.301554) (end -1.416588 7.301554) (layer F.SilkS) (width 0.12))
  (fp_line (start -1.416588 6.411554) (end -4.076588 6.411554) (layer F.SilkS) (width 0.12))
  (fp_line (start -4.076588 5.521554) (end -10.076588 5.521554) (layer F.SilkS) (width 0.12))
  (fp_line (start -10.076588 5.521554) (end -10.076588 4.761554) (layer F.SilkS) (width 0.12))
  (fp_line (start -10.076588 4.761554) (end -4.076588 4.761554) (layer F.SilkS) (width 0.12))
  (fp_line (start -1.019517 5.521554) (end -1.416588 5.521554) (layer F.SilkS) (width 0.12))
  (fp_line (start -1.019517 4.761554) (end -1.416588 4.761554) (layer F.SilkS) (width 0.12))
  (fp_line (start -1.416588 3.871554) (end -4.076588 3.871554) (layer F.SilkS) (width 0.12))
  (fp_line (start -4.076588 2.981554) (end -10.076588 2.981554) (layer F.SilkS) (width 0.12))
  (fp_line (start -10.076588 2.981554) (end -10.076588 2.221554) (layer F.SilkS) (width 0.12))
  (fp_line (start -10.076588 2.221554) (end -4.076588 2.221554) (layer F.SilkS) (width 0.12))
  (fp_line (start -1.019517 2.981554) (end -1.416588 2.981554) (layer F.SilkS) (width 0.12))
  (fp_line (start -1.019517 2.221554) (end -1.416588 2.221554) (layer F.SilkS) (width 0.12))
  (fp_line (start -1.416588 1.331554) (end -4.076588 1.331554) (layer F.SilkS) (width 0.12))
  (fp_line (start -4.076588 0.441554) (end -10.076588 0.441554) (layer F.SilkS) (width 0.12))
  (fp_line (start -10.076588 0.441554) (end -10.076588 -0.318446) (layer F.SilkS) (width 0.12))
  (fp_line (start -10.076588 -0.318446) (end -4.076588 -0.318446) (layer F.SilkS) (width 0.12))
  (fp_line (start -1.019517 0.441554) (end -1.416588 0.441554) (layer F.SilkS) (width 0.12))
  (fp_line (start -1.019517 -0.318446) (end -1.416588 -0.318446) (layer F.SilkS) (width 0.12))
  (fp_line (start 0.228404 -1.241374) (end 1.498404 -1.241374) (layer F.SilkS) (width 0.12))
  (fp_line (start 1.498404 -1.241374) (end 1.498404 0.028626) (layer F.SilkS) (width 0.12))
  (fp_line (start 1.823412 17.101554) (end 1.823412 -1.748446) (layer F.CrtYd) (width 0.05))
  (fp_line (start 1.823412 -1.748446) (end -10.526588 -1.748446) (layer F.CrtYd) (width 0.05))
  (fp_line (start -10.526588 -1.748446) (end -10.526588 17.101554) (layer F.CrtYd) (width 0.05))
  (fp_line (start -10.526588 17.101554) (end 1.823412 17.101554) (layer F.CrtYd) (width 0.05))
  (fp_text user %R (at -2.746588 7.681554 270) (layer F.Fab)
    (effects (font (size 1 1) (thickness 0.15)))
  )
  (pad 2 thru_hole oval (at 0 2.54 90) (size 1.7 2.1) (drill oval 1 1.4) (layers *.Cu *.Mask))
  (pad 3 thru_hole oval (at 0 5.08 90) (size 1.7 2.1) (drill oval 1 1.4) (layers *.Cu *.Mask))
  (pad 4 thru_hole oval (at 0 7.62 90) (size 1.7 2.1) (drill oval 1 1.4) (layers *.Cu *.Mask))
  (pad 5 thru_hole oval (at 0 10.16 90) (size 1.7 2.1) (drill oval 1 1.4) (layers *.Cu *.Mask))
  (pad 6 thru_hole oval (at 0 12.7 90) (size 1.7 2.1) (drill oval 1 1.4) (layers *.Cu *.Mask))
  (pad 7 thru_hole oval (at 0 15.24 90) (size 1.7 2.1) (drill oval 1 1.4) (layers *.Cu *.Mask))
  (pad 1 thru_hole rect (at 0 0 90) (size 1.7 2.1) (drill oval 1 1.4) (layers *.Cu *.Mask))
  (model ${KISYS3DMOD}/Pin_Headers.3dshapes/Pin_Header_Angled_1x07_Pitch2.54mm.wrl
    (at (xyz 0 -0.3 0))
    (scale (xyz 1 1 1))
    (rotate (xyz 0 0 -90))
  )
)
