(module rf_counter (layer F.Cu) (tedit 56DC642D)
  (tags "mpci, pci, pci express")
  (fp_text reference Ref** (at 2.45 -30.45 180) (layer F.SilkS)
    (effects (font (thickness 0.15)))
  )
  (fp_text value Val** (at -4.2 -30.35 180) (layer F.SilkS)
    (effects (font (thickness 0.15)))
  )
  (fp_line (start 5.75 3.55) (end 5.75 -28.55) (layer F.SilkS) (width 0.5))
  (fp_line (start 5.35 -28.95) (end -5.35 -28.95) (layer F.SilkS) (width 0.5))
  (fp_line (start -5.75 -28.55) (end -5.75 3.55) (layer F.SilkS) (width 0.5))
  (fp_line (start -5.35 3.95) (end 5.35 3.95) (layer F.SilkS) (width 0.5))
  (fp_line (start 4.1 -8.65) (end -4.1 -8.65) (layer Dwgs.User) (width 0.01))
  (fp_line (start 0 3.3) (end 0 -28.225) (layer Dwgs.User) (width 0.01))
  (fp_line (start -56.987 -26.648) (end -56.974 -26.648) (layer F.SilkS) (width 0.1))
  (fp_line (start -56.974 -26.648) (end -56.962 -26.643) (layer F.SilkS) (width 0.1))
  (fp_line (start -56.962 -26.643) (end -56.949 -26.641) (layer F.SilkS) (width 0.1))
  (fp_line (start -56.949 -26.641) (end -56.937 -26.634) (layer F.SilkS) (width 0.1))
  (fp_line (start -56.937 -26.634) (end -56.925 -26.63) (layer F.SilkS) (width 0.1))
  (fp_line (start -56.925 -26.63) (end -56.915 -26.621) (layer F.SilkS) (width 0.1))
  (fp_line (start -56.915 -26.621) (end -56.904 -26.615) (layer F.SilkS) (width 0.1))
  (fp_line (start -56.904 -26.615) (end -56.895 -26.605) (layer F.SilkS) (width 0.1))
  (fp_line (start -56.895 -26.605) (end -56.885 -26.596) (layer F.SilkS) (width 0.1))
  (fp_line (start -56.885 -26.596) (end -56.879 -26.585) (layer F.SilkS) (width 0.1))
  (fp_line (start -56.879 -26.585) (end -56.87 -26.575) (layer F.SilkS) (width 0.1))
  (fp_line (start -56.87 -26.575) (end -56.866 -26.563) (layer F.SilkS) (width 0.1))
  (fp_line (start -56.866 -26.563) (end -56.859 -26.551) (layer F.SilkS) (width 0.1))
  (fp_line (start -56.859 -26.551) (end -56.857 -26.538) (layer F.SilkS) (width 0.1))
  (fp_line (start -56.857 -26.538) (end -56.852 -26.526) (layer F.SilkS) (width 0.1))
  (fp_line (start -56.852 -26.526) (end -56.852 -26.513) (layer F.SilkS) (width 0.1))
  (fp_line (start -56.852 -26.513) (end -56.85 -26.5) (layer F.SilkS) (width 0.1))
  (fp_line (start -56.85 -26.5) (end -56.85 -23.763) (layer F.SilkS) (width 0.1))
  (fp_line (start -56.85 -23.763) (end -56.766 -23.289) (layer F.SilkS) (width 0.1))
  (fp_line (start -56.766 -23.289) (end -56.532 -22.884) (layer F.SilkS) (width 0.1))
  (fp_line (start -56.532 -22.884) (end -56.174 -22.583) (layer F.SilkS) (width 0.1))
  (fp_line (start -56.174 -22.583) (end -55.734 -22.423) (layer F.SilkS) (width 0.1))
  (fp_line (start -55.734 -22.423) (end -55.266 -22.423) (layer F.SilkS) (width 0.1))
  (fp_line (start -55.266 -22.423) (end -54.826 -22.583) (layer F.SilkS) (width 0.1))
  (fp_line (start -54.826 -22.583) (end -54.468 -22.884) (layer F.SilkS) (width 0.1))
  (fp_line (start -54.468 -22.884) (end -54.234 -23.289) (layer F.SilkS) (width 0.1))
  (fp_line (start -54.234 -23.289) (end -54.15 -23.763) (layer F.SilkS) (width 0.1))
  (fp_line (start -54.15 -23.763) (end -54.15 -26.5) (layer F.SilkS) (width 0.1))
  (fp_line (start -54.15 -26.5) (end -54.148 -26.513) (layer F.SilkS) (width 0.1))
  (fp_line (start -54.148 -26.513) (end -54.148 -26.526) (layer F.SilkS) (width 0.1))
  (fp_line (start -54.148 -26.526) (end -54.143 -26.538) (layer F.SilkS) (width 0.1))
  (fp_line (start -54.143 -26.538) (end -54.141 -26.551) (layer F.SilkS) (width 0.1))
  (fp_line (start -54.141 -26.551) (end -54.134 -26.563) (layer F.SilkS) (width 0.1))
  (fp_line (start -54.134 -26.563) (end -54.13 -26.575) (layer F.SilkS) (width 0.1))
  (fp_line (start -54.13 -26.575) (end -54.121 -26.585) (layer F.SilkS) (width 0.1))
  (fp_line (start -54.121 -26.585) (end -54.115 -26.596) (layer F.SilkS) (width 0.1))
  (fp_line (start -54.115 -26.596) (end -54.105 -26.605) (layer F.SilkS) (width 0.1))
  (fp_line (start -54.105 -26.605) (end -54.096 -26.615) (layer F.SilkS) (width 0.1))
  (fp_line (start -54.096 -26.615) (end -54.085 -26.621) (layer F.SilkS) (width 0.1))
  (fp_line (start -54.085 -26.621) (end -54.075 -26.63) (layer F.SilkS) (width 0.1))
  (fp_line (start -54.075 -26.63) (end -54.063 -26.634) (layer F.SilkS) (width 0.1))
  (fp_line (start -54.063 -26.634) (end -54.051 -26.641) (layer F.SilkS) (width 0.1))
  (fp_line (start -54.051 -26.641) (end -54.038 -26.643) (layer F.SilkS) (width 0.1))
  (fp_line (start -54.038 -26.643) (end -54.026 -26.648) (layer F.SilkS) (width 0.1))
  (fp_line (start -54.026 -26.648) (end -54.013 -26.648) (layer F.SilkS) (width 0.1))
  (fp_line (start -54.013 -26.648) (end -54 -26.65) (layer F.SilkS) (width 0.1))
  (fp_line (start -54 -26.65) (end -7 -26.65) (layer F.SilkS) (width 0.1))
  (fp_line (start -7 -26.65) (end -6.987 -26.648) (layer F.SilkS) (width 0.1))
  (fp_line (start -6.987 -26.648) (end -6.974 -26.648) (layer F.SilkS) (width 0.1))
  (fp_line (start -6.974 -26.648) (end -6.962 -26.643) (layer F.SilkS) (width 0.1))
  (fp_line (start -6.962 -26.643) (end -6.949 -26.641) (layer F.SilkS) (width 0.1))
  (fp_line (start -6.949 -26.641) (end -6.937 -26.634) (layer F.SilkS) (width 0.1))
  (fp_line (start -6.937 -26.634) (end -6.925 -26.63) (layer F.SilkS) (width 0.1))
  (fp_line (start -6.925 -26.63) (end -6.915 -26.621) (layer F.SilkS) (width 0.1))
  (fp_line (start -6.915 -26.621) (end -6.904 -26.615) (layer F.SilkS) (width 0.1))
  (fp_line (start -6.904 -26.615) (end -6.895 -26.605) (layer F.SilkS) (width 0.1))
  (fp_line (start -6.895 -26.605) (end -6.885 -26.596) (layer F.SilkS) (width 0.1))
  (fp_line (start -6.885 -26.596) (end -6.879 -26.585) (layer F.SilkS) (width 0.1))
  (fp_line (start -6.879 -26.585) (end -6.87 -26.575) (layer F.SilkS) (width 0.1))
  (fp_line (start -6.87 -26.575) (end -6.866 -26.563) (layer F.SilkS) (width 0.1))
  (fp_line (start -6.866 -26.563) (end -6.859 -26.551) (layer F.SilkS) (width 0.1))
  (fp_line (start -6.859 -26.551) (end -6.857 -26.538) (layer F.SilkS) (width 0.1))
  (fp_line (start -6.857 -26.538) (end -6.852 -26.526) (layer F.SilkS) (width 0.1))
  (fp_line (start -6.852 -26.526) (end -6.852 -26.513) (layer F.SilkS) (width 0.1))
  (fp_line (start -6.852 -26.513) (end -6.85 -26.5) (layer F.SilkS) (width 0.1))
  (fp_line (start -6.85 -26.5) (end -6.85 -23.763) (layer F.SilkS) (width 0.1))
  (fp_line (start -6.85 -23.763) (end -6.766 -23.289) (layer F.SilkS) (width 0.1))
  (fp_line (start -6.766 -23.289) (end -6.532 -22.884) (layer F.SilkS) (width 0.1))
  (fp_line (start -6.532 -22.884) (end -6.174 -22.583) (layer F.SilkS) (width 0.1))
  (fp_line (start -6.174 -22.583) (end -5.734 -22.423) (layer F.SilkS) (width 0.1))
  (fp_line (start -5.734 -22.423) (end -5.266 -22.423) (layer F.SilkS) (width 0.1))
  (fp_line (start -5.266 -22.423) (end -4.826 -22.583) (layer F.SilkS) (width 0.1))
  (fp_line (start -4.826 -22.583) (end -4.468 -22.884) (layer F.SilkS) (width 0.1))
  (fp_line (start -4.468 -22.884) (end -4.234 -23.289) (layer F.SilkS) (width 0.1))
  (fp_line (start -4.234 -23.289) (end -4.15 -23.763) (layer F.SilkS) (width 0.1))
  (fp_line (start -4.15 -23.763) (end -4.15 -25.1) (layer F.SilkS) (width 0.1))
  (fp_line (start -4.15 -25.1) (end -4.148 -25.113) (layer F.SilkS) (width 0.1))
  (fp_line (start -4.148 -25.113) (end -4.148 -25.126) (layer F.SilkS) (width 0.1))
  (fp_line (start -4.148 -25.126) (end -4.143 -25.138) (layer F.SilkS) (width 0.1))
  (fp_line (start -4.143 -25.138) (end -4.141 -25.151) (layer F.SilkS) (width 0.1))
  (fp_line (start -4.141 -25.151) (end -4.134 -25.163) (layer F.SilkS) (width 0.1))
  (fp_line (start -4.134 -25.163) (end -4.13 -25.175) (layer F.SilkS) (width 0.1))
  (fp_line (start -4.13 -25.175) (end -4.121 -25.185) (layer F.SilkS) (width 0.1))
  (fp_line (start -4.121 -25.185) (end -4.115 -25.196) (layer F.SilkS) (width 0.1))
  (fp_line (start -4.115 -25.196) (end -4.105 -25.205) (layer F.SilkS) (width 0.1))
  (fp_line (start -4.105 -25.205) (end -4.096 -25.215) (layer F.SilkS) (width 0.1))
  (fp_line (start -4.096 -25.215) (end -4.085 -25.221) (layer F.SilkS) (width 0.1))
  (fp_line (start -4.085 -25.221) (end -4.075 -25.23) (layer F.SilkS) (width 0.1))
  (fp_line (start -4.075 -25.23) (end -4.063 -25.234) (layer F.SilkS) (width 0.1))
  (fp_line (start -4.063 -25.234) (end -4.051 -25.241) (layer F.SilkS) (width 0.1))
  (fp_line (start -4.051 -25.241) (end -4.038 -25.243) (layer F.SilkS) (width 0.1))
  (fp_line (start -4.038 -25.243) (end -4.026 -25.248) (layer F.SilkS) (width 0.1))
  (fp_line (start -4.026 -25.248) (end -4.013 -25.248) (layer F.SilkS) (width 0.1))
  (fp_line (start -4.013 -25.248) (end -4 -25.25) (layer F.SilkS) (width 0.1))
  (fp_line (start -4 -25.25) (end 0 -25.25) (layer F.SilkS) (width 0.1))
  (fp_line (start 0 -25.25) (end 0.013 -25.248) (layer F.SilkS) (width 0.1))
  (fp_line (start 0.013 -25.248) (end 0.026 -25.248) (layer F.SilkS) (width 0.1))
  (fp_line (start 0.026 -25.248) (end 0.038 -25.243) (layer F.SilkS) (width 0.1))
  (fp_line (start 0.038 -25.243) (end 0.051 -25.241) (layer F.SilkS) (width 0.1))
  (fp_line (start 0.051 -25.241) (end 0.063 -25.234) (layer F.SilkS) (width 0.1))
  (fp_line (start 0.063 -25.234) (end 0.075 -25.23) (layer F.SilkS) (width 0.1))
  (fp_line (start 0.075 -25.23) (end 0.085 -25.221) (layer F.SilkS) (width 0.1))
  (fp_line (start 0.085 -25.221) (end 0.096 -25.215) (layer F.SilkS) (width 0.1))
  (fp_line (start 0.096 -25.215) (end 0.105 -25.205) (layer F.SilkS) (width 0.1))
  (fp_line (start 0.105 -25.205) (end 0.115 -25.196) (layer F.SilkS) (width 0.1))
  (fp_line (start 0.115 -25.196) (end 0.121 -25.185) (layer F.SilkS) (width 0.1))
  (fp_line (start 0.121 -25.185) (end 0.13 -25.175) (layer F.SilkS) (width 0.1))
  (fp_line (start 0.13 -25.175) (end 0.134 -25.163) (layer F.SilkS) (width 0.1))
  (fp_line (start 0.134 -25.163) (end 0.141 -25.151) (layer F.SilkS) (width 0.1))
  (fp_line (start 0.141 -25.151) (end 0.143 -25.138) (layer F.SilkS) (width 0.1))
  (fp_line (start 0.143 -25.138) (end 0.148 -25.126) (layer F.SilkS) (width 0.1))
  (fp_line (start 0.148 -25.126) (end 0.148 -25.113) (layer F.SilkS) (width 0.1))
  (fp_line (start 0.148 -25.113) (end 0.15 -25.1) (layer F.SilkS) (width 0.1))
  (fp_line (start 0.15 -25.1) (end 0.15 -9.3) (layer F.SilkS) (width 0.1))
  (fp_line (start 0.15 -9.3) (end 0.148 -9.287) (layer F.SilkS) (width 0.1))
  (fp_line (start 0.148 -9.287) (end 0.148 -9.274) (layer F.SilkS) (width 0.1))
  (fp_line (start 0.148 -9.274) (end 0.143 -9.262) (layer F.SilkS) (width 0.1))
  (fp_line (start 0.143 -9.262) (end 0.141 -9.249) (layer F.SilkS) (width 0.1))
  (fp_line (start 0.141 -9.249) (end 0.134 -9.237) (layer F.SilkS) (width 0.1))
  (fp_line (start 0.134 -9.237) (end 0.13 -9.225) (layer F.SilkS) (width 0.1))
  (fp_line (start 0.13 -9.225) (end 0.121 -9.215) (layer F.SilkS) (width 0.1))
  (fp_line (start 0.121 -9.215) (end 0.115 -9.204) (layer F.SilkS) (width 0.1))
  (fp_line (start 0.115 -9.204) (end 0.105 -9.195) (layer F.SilkS) (width 0.1))
  (fp_line (start 0.105 -9.195) (end 0.096 -9.185) (layer F.SilkS) (width 0.1))
  (fp_line (start 0.096 -9.185) (end 0.085 -9.179) (layer F.SilkS) (width 0.1))
  (fp_line (start 0.085 -9.179) (end 0.075 -9.17) (layer F.SilkS) (width 0.1))
  (fp_line (start 0.075 -9.17) (end 0.063 -9.166) (layer F.SilkS) (width 0.1))
  (fp_line (start 0.063 -9.166) (end 0.051 -9.159) (layer F.SilkS) (width 0.1))
  (fp_line (start 0.051 -9.159) (end 0.038 -9.157) (layer F.SilkS) (width 0.1))
  (fp_line (start 0.038 -9.157) (end 0.026 -9.152) (layer F.SilkS) (width 0.1))
  (fp_line (start 0.026 -9.152) (end 0.013 -9.152) (layer F.SilkS) (width 0.1))
  (fp_line (start 0.013 -9.152) (end 0 -9.15) (layer F.SilkS) (width 0.1))
  (fp_line (start 0 -9.15) (end -3.287 -9.15) (layer F.SilkS) (width 0.1))
  (fp_line (start -3.287 -9.15) (end -3.47 -9.118) (layer F.SilkS) (width 0.1))
  (fp_line (start -3.47 -9.118) (end -3.62 -9.031) (layer F.SilkS) (width 0.1))
  (fp_line (start -3.62 -9.031) (end -3.731 -8.899) (layer F.SilkS) (width 0.1))
  (fp_line (start -3.731 -8.899) (end -3.79 -8.736) (layer F.SilkS) (width 0.1))
  (fp_line (start -3.79 -8.736) (end -3.79 -8.564) (layer F.SilkS) (width 0.1))
  (fp_line (start -3.79 -8.564) (end -3.731 -8.401) (layer F.SilkS) (width 0.1))
  (fp_line (start -3.731 -8.401) (end -3.62 -8.269) (layer F.SilkS) (width 0.1))
  (fp_line (start -3.62 -8.269) (end -3.47 -8.182) (layer F.SilkS) (width 0.1))
  (fp_line (start -3.47 -8.182) (end -3.287 -8.15) (layer F.SilkS) (width 0.1))
  (fp_line (start -3.287 -8.15) (end 0 -8.15) (layer F.SilkS) (width 0.1))
  (fp_line (start 0 -8.15) (end 0.013 -8.148) (layer F.SilkS) (width 0.1))
  (fp_line (start 0.013 -8.148) (end 0.026 -8.148) (layer F.SilkS) (width 0.1))
  (fp_line (start 0.026 -8.148) (end 0.038 -8.143) (layer F.SilkS) (width 0.1))
  (fp_line (start 0.038 -8.143) (end 0.051 -8.141) (layer F.SilkS) (width 0.1))
  (fp_line (start 0.051 -8.141) (end 0.063 -8.134) (layer F.SilkS) (width 0.1))
  (fp_line (start 0.063 -8.134) (end 0.075 -8.13) (layer F.SilkS) (width 0.1))
  (fp_line (start 0.075 -8.13) (end 0.085 -8.121) (layer F.SilkS) (width 0.1))
  (fp_line (start 0.085 -8.121) (end 0.096 -8.115) (layer F.SilkS) (width 0.1))
  (fp_line (start 0.096 -8.115) (end 0.105 -8.105) (layer F.SilkS) (width 0.1))
  (fp_line (start 0.105 -8.105) (end 0.115 -8.096) (layer F.SilkS) (width 0.1))
  (fp_line (start 0.115 -8.096) (end 0.121 -8.085) (layer F.SilkS) (width 0.1))
  (fp_line (start 0.121 -8.085) (end 0.13 -8.075) (layer F.SilkS) (width 0.1))
  (fp_line (start 0.13 -8.075) (end 0.134 -8.063) (layer F.SilkS) (width 0.1))
  (fp_line (start 0.134 -8.063) (end 0.141 -8.051) (layer F.SilkS) (width 0.1))
  (fp_line (start 0.141 -8.051) (end 0.143 -8.038) (layer F.SilkS) (width 0.1))
  (fp_line (start 0.143 -8.038) (end 0.148 -8.026) (layer F.SilkS) (width 0.1))
  (fp_line (start 0.148 -8.026) (end 0.148 -8.013) (layer F.SilkS) (width 0.1))
  (fp_line (start 0.148 -8.013) (end 0.15 -8) (layer F.SilkS) (width 0.1))
  (fp_line (start 0.15 -8) (end 0.15 0.5) (layer F.SilkS) (width 0.1))
  (fp_line (start 0.15 0.5) (end 0.148 0.513) (layer F.SilkS) (width 0.1))
  (fp_line (start 0.148 0.513) (end 0.148 0.526) (layer F.SilkS) (width 0.1))
  (fp_line (start 0.148 0.526) (end 0.143 0.538) (layer F.SilkS) (width 0.1))
  (fp_line (start 0.143 0.538) (end 0.141 0.551) (layer F.SilkS) (width 0.1))
  (fp_line (start 0.141 0.551) (end 0.134 0.563) (layer F.SilkS) (width 0.1))
  (fp_line (start 0.134 0.563) (end 0.13 0.575) (layer F.SilkS) (width 0.1))
  (fp_line (start 0.13 0.575) (end 0.121 0.585) (layer F.SilkS) (width 0.1))
  (fp_line (start 0.121 0.585) (end 0.115 0.596) (layer F.SilkS) (width 0.1))
  (fp_line (start 0.115 0.596) (end 0.105 0.605) (layer F.SilkS) (width 0.1))
  (fp_line (start 0.105 0.605) (end 0.096 0.615) (layer F.SilkS) (width 0.1))
  (fp_line (start 0.096 0.615) (end 0.085 0.621) (layer F.SilkS) (width 0.1))
  (fp_line (start 0.085 0.621) (end 0.075 0.63) (layer F.SilkS) (width 0.1))
  (fp_line (start 0.075 0.63) (end 0.063 0.634) (layer F.SilkS) (width 0.1))
  (fp_line (start 0.063 0.634) (end 0.051 0.641) (layer F.SilkS) (width 0.1))
  (fp_line (start 0.051 0.641) (end 0.038 0.643) (layer F.SilkS) (width 0.1))
  (fp_line (start 0.038 0.643) (end 0.026 0.648) (layer F.SilkS) (width 0.1))
  (fp_line (start 0.026 0.648) (end 0.013 0.648) (layer F.SilkS) (width 0.1))
  (fp_line (start 0.013 0.648) (end 0 0.65) (layer F.SilkS) (width 0.1))
  (fp_line (start 0 0.65) (end -2.493 0.65) (layer F.SilkS) (width 0.1))
  (fp_line (start -2.493 0.65) (end -2.571 0.657) (layer F.SilkS) (width 0.1))
  (fp_line (start -2.571 0.657) (end -2.724 0.712) (layer F.SilkS) (width 0.1))
  (fp_line (start -2.724 0.712) (end -2.843 0.812) (layer F.SilkS) (width 0.1))
  (fp_line (start -2.843 0.812) (end -2.921 0.947) (layer F.SilkS) (width 0.1))
  (fp_line (start -2.921 0.947) (end -2.95 1.113) (layer F.SilkS) (width 0.1))
  (fp_line (start -2.95 1.113) (end -2.95 9.493) (layer F.SilkS) (width 0.1))
  (fp_line (start -2.95 9.493) (end -2.945 9.554) (layer F.SilkS) (width 0.1))
  (fp_line (start -2.945 9.554) (end -2.901 9.674) (layer F.SilkS) (width 0.1))
  (fp_line (start -2.901 9.674) (end -2.823 9.766) (layer F.SilkS) (width 0.1))
  (fp_line (start -2.823 9.766) (end -2.719 9.827) (layer F.SilkS) (width 0.1))
  (fp_line (start -2.719 9.827) (end -2.587 9.85) (layer F.SilkS) (width 0.1))
  (fp_line (start -2.587 9.85) (end 0 9.85) (layer F.SilkS) (width 0.1))
  (fp_line (start 0 9.85) (end 0.013 9.852) (layer F.SilkS) (width 0.1))
  (fp_line (start 0.013 9.852) (end 0.026 9.852) (layer F.SilkS) (width 0.1))
  (fp_line (start 0.026 9.852) (end 0.038 9.857) (layer F.SilkS) (width 0.1))
  (fp_line (start 0.038 9.857) (end 0.051 9.859) (layer F.SilkS) (width 0.1))
  (fp_line (start 0.051 9.859) (end 0.063 9.866) (layer F.SilkS) (width 0.1))
  (fp_line (start 0.063 9.866) (end 0.075 9.87) (layer F.SilkS) (width 0.1))
  (fp_line (start 0.075 9.87) (end 0.085 9.879) (layer F.SilkS) (width 0.1))
  (fp_line (start 0.085 9.879) (end 0.096 9.885) (layer F.SilkS) (width 0.1))
  (fp_line (start 0.096 9.885) (end 0.105 9.895) (layer F.SilkS) (width 0.1))
  (fp_line (start 0.105 9.895) (end 0.115 9.904) (layer F.SilkS) (width 0.1))
  (fp_line (start 0.115 9.904) (end 0.121 9.915) (layer F.SilkS) (width 0.1))
  (fp_line (start 0.121 9.915) (end 0.13 9.925) (layer F.SilkS) (width 0.1))
  (fp_line (start 0.13 9.925) (end 0.134 9.937) (layer F.SilkS) (width 0.1))
  (fp_line (start 0.134 9.937) (end 0.141 9.949) (layer F.SilkS) (width 0.1))
  (fp_line (start 0.141 9.949) (end 0.143 9.962) (layer F.SilkS) (width 0.1))
  (fp_line (start 0.143 9.962) (end 0.148 9.974) (layer F.SilkS) (width 0.1))
  (fp_line (start 0.148 9.974) (end 0.148 9.987) (layer F.SilkS) (width 0.1))
  (fp_line (start 0.148 9.987) (end 0.15 10) (layer F.SilkS) (width 0.1))
  (fp_line (start 0.15 10) (end 0.15 19.5) (layer F.SilkS) (width 0.1))
  (fp_line (start 0.15 19.5) (end 0.148 19.513) (layer F.SilkS) (width 0.1))
  (fp_line (start 0.148 19.513) (end 0.148 19.526) (layer F.SilkS) (width 0.1))
  (fp_line (start 0.148 19.526) (end 0.143 19.538) (layer F.SilkS) (width 0.1))
  (fp_line (start 0.143 19.538) (end 0.141 19.551) (layer F.SilkS) (width 0.1))
  (fp_line (start 0.141 19.551) (end 0.134 19.563) (layer F.SilkS) (width 0.1))
  (fp_line (start 0.134 19.563) (end 0.13 19.575) (layer F.SilkS) (width 0.1))
  (fp_line (start 0.13 19.575) (end 0.121 19.585) (layer F.SilkS) (width 0.1))
  (fp_line (start 0.121 19.585) (end 0.115 19.596) (layer F.SilkS) (width 0.1))
  (fp_line (start 0.115 19.596) (end 0.105 19.605) (layer F.SilkS) (width 0.1))
  (fp_line (start 0.105 19.605) (end 0.096 19.615) (layer F.SilkS) (width 0.1))
  (fp_line (start 0.096 19.615) (end 0.085 19.621) (layer F.SilkS) (width 0.1))
  (fp_line (start 0.085 19.621) (end 0.075 19.63) (layer F.SilkS) (width 0.1))
  (fp_line (start 0.075 19.63) (end 0.063 19.634) (layer F.SilkS) (width 0.1))
  (fp_line (start 0.063 19.634) (end 0.051 19.641) (layer F.SilkS) (width 0.1))
  (fp_line (start 0.051 19.641) (end 0.038 19.643) (layer F.SilkS) (width 0.1))
  (fp_line (start 0.038 19.643) (end 0.026 19.648) (layer F.SilkS) (width 0.1))
  (fp_line (start 0.026 19.648) (end 0.013 19.648) (layer F.SilkS) (width 0.1))
  (fp_line (start 0.013 19.648) (end 0 19.65) (layer F.SilkS) (width 0.1))
  (fp_line (start 0 19.65) (end -4 19.65) (layer F.SilkS) (width 0.1))
  (fp_line (start -4 19.65) (end -4.013 19.648) (layer F.SilkS) (width 0.1))
  (fp_line (start -4.013 19.648) (end -4.026 19.648) (layer F.SilkS) (width 0.1))
  (fp_line (start -4.026 19.648) (end -4.038 19.643) (layer F.SilkS) (width 0.1))
  (fp_line (start -4.038 19.643) (end -4.051 19.641) (layer F.SilkS) (width 0.1))
  (fp_line (start -4.051 19.641) (end -4.063 19.634) (layer F.SilkS) (width 0.1))
  (fp_line (start -4.063 19.634) (end -4.075 19.63) (layer F.SilkS) (width 0.1))
  (fp_line (start -4.075 19.63) (end -4.085 19.621) (layer F.SilkS) (width 0.1))
  (fp_line (start -4.085 19.621) (end -4.096 19.615) (layer F.SilkS) (width 0.1))
  (fp_line (start -4.096 19.615) (end -4.105 19.605) (layer F.SilkS) (width 0.1))
  (fp_line (start -4.105 19.605) (end -4.115 19.596) (layer F.SilkS) (width 0.1))
  (fp_line (start -4.115 19.596) (end -4.121 19.585) (layer F.SilkS) (width 0.1))
  (fp_line (start -4.121 19.585) (end -4.13 19.575) (layer F.SilkS) (width 0.1))
  (fp_line (start -4.13 19.575) (end -4.134 19.563) (layer F.SilkS) (width 0.1))
  (fp_line (start -4.134 19.563) (end -4.141 19.551) (layer F.SilkS) (width 0.1))
  (fp_line (start -4.141 19.551) (end -4.143 19.538) (layer F.SilkS) (width 0.1))
  (fp_line (start -4.143 19.538) (end -4.148 19.526) (layer F.SilkS) (width 0.1))
  (fp_line (start -4.148 19.526) (end -4.148 19.513) (layer F.SilkS) (width 0.1))
  (fp_line (start -4.148 19.513) (end -4.15 19.5) (layer F.SilkS) (width 0.1))
  (fp_line (start -4.15 19.5) (end -4.15 16.763) (layer F.SilkS) (width 0.1))
  (fp_line (start -4.15 16.763) (end -4.234 16.289) (layer F.SilkS) (width 0.1))
  (fp_line (start -4.234 16.289) (end -4.468 15.884) (layer F.SilkS) (width 0.1))
  (fp_line (start -4.468 15.884) (end -4.826 15.583) (layer F.SilkS) (width 0.1))
  (fp_line (start -4.826 15.583) (end -5.266 15.423) (layer F.SilkS) (width 0.1))
  (fp_line (start -5.266 15.423) (end -5.734 15.423) (layer F.SilkS) (width 0.1))
  (fp_line (start -5.734 15.423) (end -6.174 15.583) (layer F.SilkS) (width 0.1))
  (fp_line (start -6.174 15.583) (end -6.532 15.884) (layer F.SilkS) (width 0.1))
  (fp_line (start -6.532 15.884) (end -6.766 16.289) (layer F.SilkS) (width 0.1))
  (fp_line (start -6.766 16.289) (end -6.85 16.763) (layer F.SilkS) (width 0.1))
  (fp_line (start -6.85 16.763) (end -6.85 19.5) (layer F.SilkS) (width 0.1))
  (fp_line (start -6.85 19.5) (end -6.852 19.513) (layer F.SilkS) (width 0.1))
  (fp_line (start -6.852 19.513) (end -6.852 19.526) (layer F.SilkS) (width 0.1))
  (fp_line (start -6.852 19.526) (end -6.857 19.538) (layer F.SilkS) (width 0.1))
  (fp_line (start -6.857 19.538) (end -6.859 19.551) (layer F.SilkS) (width 0.1))
  (fp_line (start -6.859 19.551) (end -6.866 19.563) (layer F.SilkS) (width 0.1))
  (fp_line (start -6.866 19.563) (end -6.87 19.575) (layer F.SilkS) (width 0.1))
  (fp_line (start -6.87 19.575) (end -6.879 19.585) (layer F.SilkS) (width 0.1))
  (fp_line (start -6.879 19.585) (end -6.885 19.596) (layer F.SilkS) (width 0.1))
  (fp_line (start -6.885 19.596) (end -6.895 19.605) (layer F.SilkS) (width 0.1))
  (fp_line (start -6.895 19.605) (end -6.904 19.615) (layer F.SilkS) (width 0.1))
  (fp_line (start -6.904 19.615) (end -6.915 19.621) (layer F.SilkS) (width 0.1))
  (fp_line (start -6.915 19.621) (end -6.925 19.63) (layer F.SilkS) (width 0.1))
  (fp_line (start -6.925 19.63) (end -6.937 19.634) (layer F.SilkS) (width 0.1))
  (fp_line (start -6.937 19.634) (end -6.949 19.641) (layer F.SilkS) (width 0.1))
  (fp_line (start -6.949 19.641) (end -6.962 19.643) (layer F.SilkS) (width 0.1))
  (fp_line (start -6.962 19.643) (end -6.974 19.648) (layer F.SilkS) (width 0.1))
  (fp_line (start -6.974 19.648) (end -6.987 19.648) (layer F.SilkS) (width 0.1))
  (fp_line (start -6.987 19.648) (end -7 19.65) (layer F.SilkS) (width 0.1))
  (fp_line (start -7 19.65) (end -54 19.65) (layer F.SilkS) (width 0.1))
  (fp_line (start -54 19.65) (end -54.013 19.648) (layer F.SilkS) (width 0.1))
  (fp_line (start -54.013 19.648) (end -54.026 19.648) (layer F.SilkS) (width 0.1))
  (fp_line (start -54.026 19.648) (end -54.038 19.643) (layer F.SilkS) (width 0.1))
  (fp_line (start -54.038 19.643) (end -54.051 19.641) (layer F.SilkS) (width 0.1))
  (fp_line (start -54.051 19.641) (end -54.063 19.634) (layer F.SilkS) (width 0.1))
  (fp_line (start -54.063 19.634) (end -54.075 19.63) (layer F.SilkS) (width 0.1))
  (fp_line (start -54.075 19.63) (end -54.085 19.621) (layer F.SilkS) (width 0.1))
  (fp_line (start -54.085 19.621) (end -54.096 19.615) (layer F.SilkS) (width 0.1))
  (fp_line (start -54.096 19.615) (end -54.105 19.605) (layer F.SilkS) (width 0.1))
  (fp_line (start -54.105 19.605) (end -54.115 19.596) (layer F.SilkS) (width 0.1))
  (fp_line (start -54.115 19.596) (end -54.121 19.585) (layer F.SilkS) (width 0.1))
  (fp_line (start -54.121 19.585) (end -54.13 19.575) (layer F.SilkS) (width 0.1))
  (fp_line (start -54.13 19.575) (end -54.134 19.563) (layer F.SilkS) (width 0.1))
  (fp_line (start -54.134 19.563) (end -54.141 19.551) (layer F.SilkS) (width 0.1))
  (fp_line (start -54.141 19.551) (end -54.143 19.538) (layer F.SilkS) (width 0.1))
  (fp_line (start -54.143 19.538) (end -54.148 19.526) (layer F.SilkS) (width 0.1))
  (fp_line (start -54.148 19.526) (end -54.148 19.513) (layer F.SilkS) (width 0.1))
  (fp_line (start -54.148 19.513) (end -54.15 19.5) (layer F.SilkS) (width 0.1))
  (fp_line (start -54.15 19.5) (end -54.15 16.763) (layer F.SilkS) (width 0.1))
  (fp_line (start -54.15 16.763) (end -54.234 16.289) (layer F.SilkS) (width 0.1))
  (fp_line (start -54.234 16.289) (end -54.468 15.884) (layer F.SilkS) (width 0.1))
  (fp_line (start -54.468 15.884) (end -54.826 15.583) (layer F.SilkS) (width 0.1))
  (fp_line (start -54.826 15.583) (end -55.266 15.423) (layer F.SilkS) (width 0.1))
  (fp_line (start -55.266 15.423) (end -55.734 15.423) (layer F.SilkS) (width 0.1))
  (fp_line (start -55.734 15.423) (end -56.174 15.583) (layer F.SilkS) (width 0.1))
  (fp_line (start -56.174 15.583) (end -56.532 15.884) (layer F.SilkS) (width 0.1))
  (fp_line (start -56.532 15.884) (end -56.766 16.289) (layer F.SilkS) (width 0.1))
  (fp_line (start -56.766 16.289) (end -56.85 16.763) (layer F.SilkS) (width 0.1))
  (fp_line (start -56.85 16.763) (end -56.85 19.5) (layer F.SilkS) (width 0.1))
  (fp_line (start -56.85 19.5) (end -56.852 19.513) (layer F.SilkS) (width 0.1))
  (fp_line (start -56.852 19.513) (end -56.852 19.526) (layer F.SilkS) (width 0.1))
  (fp_line (start -56.852 19.526) (end -56.857 19.538) (layer F.SilkS) (width 0.1))
  (fp_line (start -56.857 19.538) (end -56.859 19.551) (layer F.SilkS) (width 0.1))
  (fp_line (start -56.859 19.551) (end -56.866 19.563) (layer F.SilkS) (width 0.1))
  (fp_line (start -56.866 19.563) (end -56.87 19.575) (layer F.SilkS) (width 0.1))
  (fp_line (start -56.87 19.575) (end -56.879 19.585) (layer F.SilkS) (width 0.1))
  (fp_line (start -56.879 19.585) (end -56.885 19.596) (layer F.SilkS) (width 0.1))
  (fp_line (start -56.885 19.596) (end -56.895 19.605) (layer F.SilkS) (width 0.1))
  (fp_line (start -56.895 19.605) (end -56.904 19.615) (layer F.SilkS) (width 0.1))
  (fp_line (start -56.904 19.615) (end -56.915 19.621) (layer F.SilkS) (width 0.1))
  (fp_line (start -56.915 19.621) (end -56.925 19.63) (layer F.SilkS) (width 0.1))
  (fp_line (start -56.925 19.63) (end -56.937 19.634) (layer F.SilkS) (width 0.1))
  (fp_line (start -56.937 19.634) (end -56.949 19.641) (layer F.SilkS) (width 0.1))
  (fp_line (start -56.949 19.641) (end -56.962 19.643) (layer F.SilkS) (width 0.1))
  (fp_line (start -56.962 19.643) (end -56.974 19.648) (layer F.SilkS) (width 0.1))
  (fp_line (start -56.974 19.648) (end -56.987 19.648) (layer F.SilkS) (width 0.1))
  (fp_line (start -56.987 19.648) (end -57 19.65) (layer F.SilkS) (width 0.1))
  (fp_line (start -57 19.65) (end -61 19.65) (layer F.SilkS) (width 0.1))
  (fp_line (start -61 19.65) (end -61.013 19.648) (layer F.SilkS) (width 0.1))
  (fp_line (start -61.013 19.648) (end -61.026 19.648) (layer F.SilkS) (width 0.1))
  (fp_line (start -61.026 19.648) (end -61.038 19.643) (layer F.SilkS) (width 0.1))
  (fp_line (start -61.038 19.643) (end -61.051 19.641) (layer F.SilkS) (width 0.1))
  (fp_line (start -61.051 19.641) (end -61.063 19.634) (layer F.SilkS) (width 0.1))
  (fp_line (start -61.063 19.634) (end -61.075 19.63) (layer F.SilkS) (width 0.1))
  (fp_line (start -61.075 19.63) (end -61.085 19.621) (layer F.SilkS) (width 0.1))
  (fp_line (start -61.085 19.621) (end -61.096 19.615) (layer F.SilkS) (width 0.1))
  (fp_line (start -61.096 19.615) (end -61.105 19.605) (layer F.SilkS) (width 0.1))
  (fp_line (start -61.105 19.605) (end -61.115 19.596) (layer F.SilkS) (width 0.1))
  (fp_line (start -61.115 19.596) (end -61.121 19.585) (layer F.SilkS) (width 0.1))
  (fp_line (start -61.121 19.585) (end -61.13 19.575) (layer F.SilkS) (width 0.1))
  (fp_line (start -61.13 19.575) (end -61.134 19.563) (layer F.SilkS) (width 0.1))
  (fp_line (start -61.134 19.563) (end -61.141 19.551) (layer F.SilkS) (width 0.1))
  (fp_line (start -61.141 19.551) (end -61.143 19.538) (layer F.SilkS) (width 0.1))
  (fp_line (start -61.143 19.538) (end -61.148 19.526) (layer F.SilkS) (width 0.1))
  (fp_line (start -61.148 19.526) (end -61.148 19.513) (layer F.SilkS) (width 0.1))
  (fp_line (start -61.148 19.513) (end -61.15 19.5) (layer F.SilkS) (width 0.1))
  (fp_line (start -61.15 19.5) (end -61.15 -26.5) (layer F.SilkS) (width 0.1))
  (fp_line (start -61.15 -26.5) (end -61.148 -26.513) (layer F.SilkS) (width 0.1))
  (fp_line (start -61.148 -26.513) (end -61.148 -26.526) (layer F.SilkS) (width 0.1))
  (fp_line (start -61.148 -26.526) (end -61.143 -26.538) (layer F.SilkS) (width 0.1))
  (fp_line (start -61.143 -26.538) (end -61.141 -26.551) (layer F.SilkS) (width 0.1))
  (fp_line (start -61.141 -26.551) (end -61.134 -26.563) (layer F.SilkS) (width 0.1))
  (fp_line (start -61.134 -26.563) (end -61.13 -26.575) (layer F.SilkS) (width 0.1))
  (fp_line (start -61.13 -26.575) (end -61.121 -26.585) (layer F.SilkS) (width 0.1))
  (fp_line (start -61.121 -26.585) (end -61.115 -26.596) (layer F.SilkS) (width 0.1))
  (fp_line (start -61.115 -26.596) (end -61.105 -26.605) (layer F.SilkS) (width 0.1))
  (fp_line (start -61.105 -26.605) (end -61.096 -26.615) (layer F.SilkS) (width 0.1))
  (fp_line (start -61.096 -26.615) (end -61.085 -26.621) (layer F.SilkS) (width 0.1))
  (fp_line (start -61.085 -26.621) (end -61.075 -26.63) (layer F.SilkS) (width 0.1))
  (fp_line (start -61.075 -26.63) (end -61.063 -26.634) (layer F.SilkS) (width 0.1))
  (fp_line (start -61.063 -26.634) (end -61.051 -26.641) (layer F.SilkS) (width 0.1))
  (fp_line (start -61.051 -26.641) (end -61.038 -26.643) (layer F.SilkS) (width 0.1))
  (fp_line (start -61.038 -26.643) (end -61.026 -26.648) (layer F.SilkS) (width 0.1))
  (fp_line (start -61.026 -26.648) (end -61.013 -26.648) (layer F.SilkS) (width 0.1))
  (fp_line (start -61.013 -26.648) (end -61 -26.65) (layer F.SilkS) (width 0.1))
  (fp_line (start -61 -26.65) (end -57 -26.65) (layer F.SilkS) (width 0.1))
  (fp_line (start -57 -26.65) (end -56.987 -26.648) (layer F.SilkS) (width 0.1))
  (fp_line (start -54.699 15.31) (end -54.654 15.336) (layer F.SilkS) (width 0.1))
  (fp_line (start -54.654 15.336) (end -54.255 15.671) (layer F.SilkS) (width 0.1))
  (fp_line (start -54.255 15.671) (end -54.221 15.711) (layer F.SilkS) (width 0.1))
  (fp_line (start -54.221 15.711) (end -53.961 16.162) (layer F.SilkS) (width 0.1))
  (fp_line (start -53.961 16.162) (end -53.943 16.211) (layer F.SilkS) (width 0.1))
  (fp_line (start -53.943 16.211) (end -53.852 16.724) (layer F.SilkS) (width 0.1))
  (fp_line (start -53.852 16.724) (end -53.852 16.737) (layer F.SilkS) (width 0.1))
  (fp_line (start -53.852 16.737) (end -53.85 16.75) (layer F.SilkS) (width 0.1))
  (fp_line (start -53.85 16.75) (end -53.85 19.35) (layer F.SilkS) (width 0.1))
  (fp_line (start -53.85 19.35) (end -7.15 19.35) (layer F.SilkS) (width 0.1))
  (fp_line (start -7.15 19.35) (end -7.15 16.75) (layer F.SilkS) (width 0.1))
  (fp_line (start -7.15 16.75) (end -7.148 16.737) (layer F.SilkS) (width 0.1))
  (fp_line (start -7.148 16.737) (end -7.148 16.724) (layer F.SilkS) (width 0.1))
  (fp_line (start -7.148 16.724) (end -7.057 16.211) (layer F.SilkS) (width 0.1))
  (fp_line (start -7.057 16.211) (end -7.039 16.162) (layer F.SilkS) (width 0.1))
  (fp_line (start -7.039 16.162) (end -6.779 15.711) (layer F.SilkS) (width 0.1))
  (fp_line (start -6.779 15.711) (end -6.745 15.671) (layer F.SilkS) (width 0.1))
  (fp_line (start -6.745 15.671) (end -6.346 15.336) (layer F.SilkS) (width 0.1))
  (fp_line (start -6.346 15.336) (end -6.301 15.31) (layer F.SilkS) (width 0.1))
  (fp_line (start -6.301 15.31) (end -5.812 15.132) (layer F.SilkS) (width 0.1))
  (fp_line (start -5.812 15.132) (end -5.76 15.123) (layer F.SilkS) (width 0.1))
  (fp_line (start -5.76 15.123) (end -5.24 15.123) (layer F.SilkS) (width 0.1))
  (fp_line (start -5.24 15.123) (end -5.188 15.132) (layer F.SilkS) (width 0.1))
  (fp_line (start -5.188 15.132) (end -4.699 15.31) (layer F.SilkS) (width 0.1))
  (fp_line (start -4.699 15.31) (end -4.654 15.336) (layer F.SilkS) (width 0.1))
  (fp_line (start -4.654 15.336) (end -4.255 15.671) (layer F.SilkS) (width 0.1))
  (fp_line (start -4.255 15.671) (end -4.221 15.711) (layer F.SilkS) (width 0.1))
  (fp_line (start -4.221 15.711) (end -3.961 16.162) (layer F.SilkS) (width 0.1))
  (fp_line (start -3.961 16.162) (end -3.943 16.211) (layer F.SilkS) (width 0.1))
  (fp_line (start -3.943 16.211) (end -3.852 16.724) (layer F.SilkS) (width 0.1))
  (fp_line (start -3.852 16.724) (end -3.852 16.737) (layer F.SilkS) (width 0.1))
  (fp_line (start -3.852 16.737) (end -3.85 16.75) (layer F.SilkS) (width 0.1))
  (fp_line (start -3.85 16.75) (end -3.85 19.35) (layer F.SilkS) (width 0.1))
  (fp_line (start -3.85 19.35) (end -0.15 19.35) (layer F.SilkS) (width 0.1))
  (fp_line (start -0.15 19.35) (end -0.15 10.15) (layer F.SilkS) (width 0.1))
  (fp_line (start -0.15 10.15) (end -2.6 10.15) (layer F.SilkS) (width 0.1))
  (fp_line (start -2.6 10.15) (end -2.613 10.148) (layer F.SilkS) (width 0.1))
  (fp_line (start -2.613 10.148) (end -2.626 10.148) (layer F.SilkS) (width 0.1))
  (fp_line (start -2.626 10.148) (end -2.797 10.118) (layer F.SilkS) (width 0.1))
  (fp_line (start -2.797 10.118) (end -2.846 10.1) (layer F.SilkS) (width 0.1))
  (fp_line (start -2.846 10.1) (end -2.996 10.013) (layer F.SilkS) (width 0.1))
  (fp_line (start -2.996 10.013) (end -3.036 9.979) (layer F.SilkS) (width 0.1))
  (fp_line (start -3.036 9.979) (end -3.148 9.846) (layer F.SilkS) (width 0.1))
  (fp_line (start -3.148 9.846) (end -3.174 9.801) (layer F.SilkS) (width 0.1))
  (fp_line (start -3.174 9.801) (end -3.233 9.638) (layer F.SilkS) (width 0.1))
  (fp_line (start -3.233 9.638) (end -3.237 9.619) (layer F.SilkS) (width 0.1))
  (fp_line (start -3.237 9.619) (end -3.242 9.6) (layer F.SilkS) (width 0.1))
  (fp_line (start -3.242 9.6) (end -3.249 9.513) (layer F.SilkS) (width 0.1))
  (fp_line (start -3.249 9.513) (end -3.249 9.506) (layer F.SilkS) (width 0.1))
  (fp_line (start -3.249 9.506) (end -3.25 9.5) (layer F.SilkS) (width 0.1))
  (fp_line (start -3.25 9.5) (end -3.25 1.1) (layer F.SilkS) (width 0.1))
  (fp_line (start -3.25 1.1) (end -3.248 1.087) (layer F.SilkS) (width 0.1))
  (fp_line (start -3.248 1.087) (end -3.248 1.074) (layer F.SilkS) (width 0.1))
  (fp_line (start -3.248 1.074) (end -3.212 0.869) (layer F.SilkS) (width 0.1))
  (fp_line (start -3.212 0.869) (end -3.194 0.82) (layer F.SilkS) (width 0.1))
  (fp_line (start -3.194 0.82) (end -3.09 0.639) (layer F.SilkS) (width 0.1))
  (fp_line (start -3.09 0.639) (end -3.09 0.639) (layer F.SilkS) (width 0.1))
  (fp_line (start -3.09 0.639) (end -3.056 0.599) (layer F.SilkS) (width 0.1))
  (fp_line (start -3.056 0.599) (end -2.896 0.465) (layer F.SilkS) (width 0.1))
  (fp_line (start -2.896 0.465) (end -2.896 0.465) (layer F.SilkS) (width 0.1))
  (fp_line (start -2.896 0.465) (end -2.851 0.439) (layer F.SilkS) (width 0.1))
  (fp_line (start -2.851 0.439) (end -2.655 0.368) (layer F.SilkS) (width 0.1))
  (fp_line (start -2.655 0.368) (end -2.636 0.365) (layer F.SilkS) (width 0.1))
  (fp_line (start -2.636 0.365) (end -2.617 0.36) (layer F.SilkS) (width 0.1))
  (fp_line (start -2.617 0.36) (end -2.513 0.351) (layer F.SilkS) (width 0.1))
  (fp_line (start -2.513 0.351) (end -2.507 0.351) (layer F.SilkS) (width 0.1))
  (fp_line (start -2.507 0.351) (end -2.5 0.35) (layer F.SilkS) (width 0.1))
  (fp_line (start -2.5 0.35) (end -0.15 0.35) (layer F.SilkS) (width 0.1))
  (fp_line (start -0.15 0.35) (end -0.15 -7.85) (layer F.SilkS) (width 0.1))
  (fp_line (start -0.15 -7.85) (end -3.3 -7.85) (layer F.SilkS) (width 0.1))
  (fp_line (start -3.3 -7.85) (end -3.313 -7.852) (layer F.SilkS) (width 0.1))
  (fp_line (start -3.313 -7.852) (end -3.326 -7.852) (layer F.SilkS) (width 0.1))
  (fp_line (start -3.326 -7.852) (end -3.548 -7.891) (layer F.SilkS) (width 0.1))
  (fp_line (start -3.548 -7.891) (end -3.597 -7.909) (layer F.SilkS) (width 0.1))
  (fp_line (start -3.597 -7.909) (end -3.597 -7.909) (layer F.SilkS) (width 0.1))
  (fp_line (start -3.597 -7.909) (end -3.793 -8.022) (layer F.SilkS) (width 0.1))
  (fp_line (start -3.793 -8.022) (end -3.833 -8.056) (layer F.SilkS) (width 0.1))
  (fp_line (start -3.833 -8.056) (end -3.978 -8.229) (layer F.SilkS) (width 0.1))
  (fp_line (start -3.978 -8.229) (end -4.004 -8.274) (layer F.SilkS) (width 0.1))
  (fp_line (start -4.004 -8.274) (end -4.081 -8.486) (layer F.SilkS) (width 0.1))
  (fp_line (start -4.081 -8.486) (end -4.09 -8.537) (layer F.SilkS) (width 0.1))
  (fp_line (start -4.09 -8.537) (end -4.09 -8.763) (layer F.SilkS) (width 0.1))
  (fp_line (start -4.09 -8.763) (end -4.081 -8.814) (layer F.SilkS) (width 0.1))
  (fp_line (start -4.081 -8.814) (end -4.004 -9.026) (layer F.SilkS) (width 0.1))
  (fp_line (start -4.004 -9.026) (end -3.978 -9.071) (layer F.SilkS) (width 0.1))
  (fp_line (start -3.978 -9.071) (end -3.978 -9.071) (layer F.SilkS) (width 0.1))
  (fp_line (start -3.978 -9.071) (end -3.833 -9.244) (layer F.SilkS) (width 0.1))
  (fp_line (start -3.833 -9.244) (end -3.793 -9.278) (layer F.SilkS) (width 0.1))
  (fp_line (start -3.793 -9.278) (end -3.597 -9.391) (layer F.SilkS) (width 0.1))
  (fp_line (start -3.597 -9.391) (end -3.597 -9.391) (layer F.SilkS) (width 0.1))
  (fp_line (start -3.597 -9.391) (end -3.548 -9.409) (layer F.SilkS) (width 0.1))
  (fp_line (start -3.548 -9.409) (end -3.326 -9.448) (layer F.SilkS) (width 0.1))
  (fp_line (start -3.326 -9.448) (end -3.313 -9.448) (layer F.SilkS) (width 0.1))
  (fp_line (start -3.313 -9.448) (end -3.3 -9.45) (layer F.SilkS) (width 0.1))
  (fp_line (start -3.3 -9.45) (end -0.15 -9.45) (layer F.SilkS) (width 0.1))
  (fp_line (start -0.15 -9.45) (end -0.15 -24.95) (layer F.SilkS) (width 0.1))
  (fp_line (start -0.15 -24.95) (end -3.85 -24.95) (layer F.SilkS) (width 0.1))
  (fp_line (start -3.85 -24.95) (end -3.85 -23.75) (layer F.SilkS) (width 0.1))
  (fp_line (start -3.85 -23.75) (end -3.852 -23.737) (layer F.SilkS) (width 0.1))
  (fp_line (start -3.852 -23.737) (end -3.852 -23.724) (layer F.SilkS) (width 0.1))
  (fp_line (start -3.852 -23.724) (end -3.943 -23.211) (layer F.SilkS) (width 0.1))
  (fp_line (start -3.943 -23.211) (end -3.961 -23.162) (layer F.SilkS) (width 0.1))
  (fp_line (start -3.961 -23.162) (end -4.221 -22.711) (layer F.SilkS) (width 0.1))
  (fp_line (start -4.221 -22.711) (end -4.255 -22.671) (layer F.SilkS) (width 0.1))
  (fp_line (start -4.255 -22.671) (end -4.654 -22.336) (layer F.SilkS) (width 0.1))
  (fp_line (start -4.654 -22.336) (end -4.654 -22.336) (layer F.SilkS) (width 0.1))
  (fp_line (start -4.654 -22.336) (end -4.699 -22.31) (layer F.SilkS) (width 0.1))
  (fp_line (start -4.699 -22.31) (end -5.188 -22.132) (layer F.SilkS) (width 0.1))
  (fp_line (start -5.188 -22.132) (end -5.24 -22.123) (layer F.SilkS) (width 0.1))
  (fp_line (start -5.24 -22.123) (end -5.76 -22.123) (layer F.SilkS) (width 0.1))
  (fp_line (start -5.76 -22.123) (end -5.812 -22.132) (layer F.SilkS) (width 0.1))
  (fp_line (start -5.812 -22.132) (end -6.301 -22.31) (layer F.SilkS) (width 0.1))
  (fp_line (start -6.301 -22.31) (end -6.346 -22.336) (layer F.SilkS) (width 0.1))
  (fp_line (start -6.346 -22.336) (end -6.346 -22.336) (layer F.SilkS) (width 0.1))
  (fp_line (start -6.346 -22.336) (end -6.745 -22.671) (layer F.SilkS) (width 0.1))
  (fp_line (start -6.745 -22.671) (end -6.779 -22.711) (layer F.SilkS) (width 0.1))
  (fp_line (start -6.779 -22.711) (end -7.039 -23.162) (layer F.SilkS) (width 0.1))
  (fp_line (start -7.039 -23.162) (end -7.057 -23.211) (layer F.SilkS) (width 0.1))
  (fp_line (start -7.057 -23.211) (end -7.148 -23.724) (layer F.SilkS) (width 0.1))
  (fp_line (start -7.148 -23.724) (end -7.148 -23.737) (layer F.SilkS) (width 0.1))
  (fp_line (start -7.148 -23.737) (end -7.15 -23.75) (layer F.SilkS) (width 0.1))
  (fp_line (start -7.15 -23.75) (end -7.15 -26.35) (layer F.SilkS) (width 0.1))
  (fp_line (start -7.15 -26.35) (end -53.85 -26.35) (layer F.SilkS) (width 0.1))
  (fp_line (start -53.85 -26.35) (end -53.85 -23.75) (layer F.SilkS) (width 0.1))
  (fp_line (start -53.85 -23.75) (end -53.852 -23.737) (layer F.SilkS) (width 0.1))
  (fp_line (start -53.852 -23.737) (end -53.852 -23.724) (layer F.SilkS) (width 0.1))
  (fp_line (start -53.852 -23.724) (end -53.943 -23.211) (layer F.SilkS) (width 0.1))
  (fp_line (start -53.943 -23.211) (end -53.961 -23.162) (layer F.SilkS) (width 0.1))
  (fp_line (start -53.961 -23.162) (end -54.221 -22.711) (layer F.SilkS) (width 0.1))
  (fp_line (start -54.221 -22.711) (end -54.255 -22.671) (layer F.SilkS) (width 0.1))
  (fp_line (start -54.255 -22.671) (end -54.654 -22.336) (layer F.SilkS) (width 0.1))
  (fp_line (start -54.654 -22.336) (end -54.654 -22.336) (layer F.SilkS) (width 0.1))
  (fp_line (start -54.654 -22.336) (end -54.699 -22.31) (layer F.SilkS) (width 0.1))
  (fp_line (start -54.699 -22.31) (end -55.188 -22.132) (layer F.SilkS) (width 0.1))
  (fp_line (start -55.188 -22.132) (end -55.24 -22.123) (layer F.SilkS) (width 0.1))
  (fp_line (start -55.24 -22.123) (end -55.76 -22.123) (layer F.SilkS) (width 0.1))
  (fp_line (start -55.76 -22.123) (end -55.812 -22.132) (layer F.SilkS) (width 0.1))
  (fp_line (start -55.812 -22.132) (end -56.301 -22.31) (layer F.SilkS) (width 0.1))
  (fp_line (start -56.301 -22.31) (end -56.346 -22.336) (layer F.SilkS) (width 0.1))
  (fp_line (start -56.346 -22.336) (end -56.346 -22.336) (layer F.SilkS) (width 0.1))
  (fp_line (start -56.346 -22.336) (end -56.745 -22.671) (layer F.SilkS) (width 0.1))
  (fp_line (start -56.745 -22.671) (end -56.779 -22.711) (layer F.SilkS) (width 0.1))
  (fp_line (start -56.779 -22.711) (end -57.039 -23.162) (layer F.SilkS) (width 0.1))
  (fp_line (start -57.039 -23.162) (end -57.057 -23.211) (layer F.SilkS) (width 0.1))
  (fp_line (start -57.057 -23.211) (end -57.148 -23.724) (layer F.SilkS) (width 0.1))
  (fp_line (start -57.148 -23.724) (end -57.148 -23.737) (layer F.SilkS) (width 0.1))
  (fp_line (start -57.148 -23.737) (end -57.15 -23.75) (layer F.SilkS) (width 0.1))
  (fp_line (start -57.15 -23.75) (end -57.15 -26.35) (layer F.SilkS) (width 0.1))
  (fp_line (start -57.15 -26.35) (end -60.85 -26.35) (layer F.SilkS) (width 0.1))
  (fp_line (start -60.85 -26.35) (end -60.85 19.35) (layer F.SilkS) (width 0.1))
  (fp_line (start -60.85 19.35) (end -57.15 19.35) (layer F.SilkS) (width 0.1))
  (fp_line (start -57.15 19.35) (end -57.15 16.75) (layer F.SilkS) (width 0.1))
  (fp_line (start -57.15 16.75) (end -57.148 16.737) (layer F.SilkS) (width 0.1))
  (fp_line (start -57.148 16.737) (end -57.148 16.724) (layer F.SilkS) (width 0.1))
  (fp_line (start -57.148 16.724) (end -57.057 16.211) (layer F.SilkS) (width 0.1))
  (fp_line (start -57.057 16.211) (end -57.039 16.162) (layer F.SilkS) (width 0.1))
  (fp_line (start -57.039 16.162) (end -56.779 15.711) (layer F.SilkS) (width 0.1))
  (fp_line (start -56.779 15.711) (end -56.745 15.671) (layer F.SilkS) (width 0.1))
  (fp_line (start -56.745 15.671) (end -56.346 15.336) (layer F.SilkS) (width 0.1))
  (fp_line (start -56.346 15.336) (end -56.301 15.31) (layer F.SilkS) (width 0.1))
  (fp_line (start -56.301 15.31) (end -55.812 15.132) (layer F.SilkS) (width 0.1))
  (fp_line (start -55.812 15.132) (end -55.76 15.123) (layer F.SilkS) (width 0.1))
  (fp_line (start -55.76 15.123) (end -55.24 15.123) (layer F.SilkS) (width 0.1))
  (fp_line (start -55.24 15.123) (end -55.188 15.132) (layer F.SilkS) (width 0.1))
  (fp_line (start -55.188 15.132) (end -54.699 15.31) (layer F.SilkS) (width 0.1))
  (fp_line (start -43.235 11.561) (end -43.675 11.93) (layer F.SilkS) (width 0.1))
  (fp_line (start -43.675 11.93) (end -44.213 12.126) (layer F.SilkS) (width 0.1))
  (fp_line (start -44.213 12.126) (end -44.787 12.126) (layer F.SilkS) (width 0.1))
  (fp_line (start -44.787 12.126) (end -45.325 11.93) (layer F.SilkS) (width 0.1))
  (fp_line (start -45.325 11.93) (end -45.765 11.561) (layer F.SilkS) (width 0.1))
  (fp_line (start -45.765 11.561) (end -46.051 11.065) (layer F.SilkS) (width 0.1))
  (fp_line (start -46.051 11.065) (end -46.151 10.5) (layer F.SilkS) (width 0.1))
  (fp_line (start -46.151 10.5) (end -46.051 9.935) (layer F.SilkS) (width 0.1))
  (fp_line (start -46.051 9.935) (end -45.765 9.439) (layer F.SilkS) (width 0.1))
  (fp_line (start -45.765 9.439) (end -45.325 9.07) (layer F.SilkS) (width 0.1))
  (fp_line (start -45.325 9.07) (end -44.787 8.874) (layer F.SilkS) (width 0.1))
  (fp_line (start -44.787 8.874) (end -44.213 8.874) (layer F.SilkS) (width 0.1))
  (fp_line (start -44.213 8.874) (end -43.675 9.07) (layer F.SilkS) (width 0.1))
  (fp_line (start -43.675 9.07) (end -43.235 9.439) (layer F.SilkS) (width 0.1))
  (fp_line (start -43.235 9.439) (end -42.949 9.935) (layer F.SilkS) (width 0.1))
  (fp_line (start -42.949 9.935) (end -42.849 10.5) (layer F.SilkS) (width 0.1))
  (fp_line (start -42.849 10.5) (end -42.949 11.065) (layer F.SilkS) (width 0.1))
  (fp_line (start -42.949 11.065) (end -43.235 11.561) (layer F.SilkS) (width 0.1))
  (fp_line (start -43.465 9.632) (end -43.825 9.33) (layer F.SilkS) (width 0.1))
  (fp_line (start -43.825 9.33) (end -44.265 9.17) (layer F.SilkS) (width 0.1))
  (fp_line (start -44.265 9.17) (end -44.735 9.17) (layer F.SilkS) (width 0.1))
  (fp_line (start -44.735 9.17) (end -45.175 9.33) (layer F.SilkS) (width 0.1))
  (fp_line (start -45.175 9.33) (end -45.535 9.632) (layer F.SilkS) (width 0.1))
  (fp_line (start -45.535 9.632) (end -45.769 10.038) (layer F.SilkS) (width 0.1))
  (fp_line (start -45.769 10.038) (end -45.851 10.5) (layer F.SilkS) (width 0.1))
  (fp_line (start -45.851 10.5) (end -45.769 10.962) (layer F.SilkS) (width 0.1))
  (fp_line (start -45.769 10.962) (end -45.535 11.368) (layer F.SilkS) (width 0.1))
  (fp_line (start -45.535 11.368) (end -45.175 11.67) (layer F.SilkS) (width 0.1))
  (fp_line (start -45.175 11.67) (end -44.735 11.83) (layer F.SilkS) (width 0.1))
  (fp_line (start -44.735 11.83) (end -44.265 11.83) (layer F.SilkS) (width 0.1))
  (fp_line (start -44.265 11.83) (end -43.825 11.67) (layer F.SilkS) (width 0.1))
  (fp_line (start -43.825 11.67) (end -43.465 11.368) (layer F.SilkS) (width 0.1))
  (fp_line (start -43.465 11.368) (end -43.231 10.962) (layer F.SilkS) (width 0.1))
  (fp_line (start -43.231 10.962) (end -43.149 10.5) (layer F.SilkS) (width 0.1))
  (fp_line (start -43.149 10.5) (end -43.231 10.038) (layer F.SilkS) (width 0.1))
  (fp_line (start -43.231 10.038) (end -43.465 9.632) (layer F.SilkS) (width 0.1))
  (fp_line (start -15.235 11.561) (end -15.675 11.93) (layer F.SilkS) (width 0.1))
  (fp_line (start -15.675 11.93) (end -16.213 12.126) (layer F.SilkS) (width 0.1))
  (fp_line (start -16.213 12.126) (end -16.787 12.126) (layer F.SilkS) (width 0.1))
  (fp_line (start -16.787 12.126) (end -17.325 11.93) (layer F.SilkS) (width 0.1))
  (fp_line (start -17.325 11.93) (end -17.765 11.561) (layer F.SilkS) (width 0.1))
  (fp_line (start -17.765 11.561) (end -18.051 11.065) (layer F.SilkS) (width 0.1))
  (fp_line (start -18.051 11.065) (end -18.151 10.5) (layer F.SilkS) (width 0.1))
  (fp_line (start -18.151 10.5) (end -18.051 9.935) (layer F.SilkS) (width 0.1))
  (fp_line (start -18.051 9.935) (end -17.765 9.439) (layer F.SilkS) (width 0.1))
  (fp_line (start -17.765 9.439) (end -17.325 9.07) (layer F.SilkS) (width 0.1))
  (fp_line (start -17.325 9.07) (end -16.787 8.874) (layer F.SilkS) (width 0.1))
  (fp_line (start -16.787 8.874) (end -16.213 8.874) (layer F.SilkS) (width 0.1))
  (fp_line (start -16.213 8.874) (end -15.675 9.07) (layer F.SilkS) (width 0.1))
  (fp_line (start -15.675 9.07) (end -15.235 9.439) (layer F.SilkS) (width 0.1))
  (fp_line (start -15.235 9.439) (end -14.949 9.935) (layer F.SilkS) (width 0.1))
  (fp_line (start -14.949 9.935) (end -14.849 10.5) (layer F.SilkS) (width 0.1))
  (fp_line (start -14.849 10.5) (end -14.949 11.065) (layer F.SilkS) (width 0.1))
  (fp_line (start -14.949 11.065) (end -15.235 11.561) (layer F.SilkS) (width 0.1))
  (fp_line (start -15.465 9.632) (end -15.825 9.33) (layer F.SilkS) (width 0.1))
  (fp_line (start -15.825 9.33) (end -16.265 9.17) (layer F.SilkS) (width 0.1))
  (fp_line (start -16.265 9.17) (end -16.735 9.17) (layer F.SilkS) (width 0.1))
  (fp_line (start -16.735 9.17) (end -17.175 9.33) (layer F.SilkS) (width 0.1))
  (fp_line (start -17.175 9.33) (end -17.535 9.632) (layer F.SilkS) (width 0.1))
  (fp_line (start -17.535 9.632) (end -17.769 10.038) (layer F.SilkS) (width 0.1))
  (fp_line (start -17.769 10.038) (end -17.851 10.5) (layer F.SilkS) (width 0.1))
  (fp_line (start -17.851 10.5) (end -17.769 10.962) (layer F.SilkS) (width 0.1))
  (fp_line (start -17.769 10.962) (end -17.535 11.368) (layer F.SilkS) (width 0.1))
  (fp_line (start -17.535 11.368) (end -17.175 11.67) (layer F.SilkS) (width 0.1))
  (fp_line (start -17.175 11.67) (end -16.735 11.83) (layer F.SilkS) (width 0.1))
  (fp_line (start -16.735 11.83) (end -16.265 11.83) (layer F.SilkS) (width 0.1))
  (fp_line (start -16.265 11.83) (end -15.825 11.67) (layer F.SilkS) (width 0.1))
  (fp_line (start -15.825 11.67) (end -15.465 11.368) (layer F.SilkS) (width 0.1))
  (fp_line (start -15.465 11.368) (end -15.231 10.962) (layer F.SilkS) (width 0.1))
  (fp_line (start -15.231 10.962) (end -15.149 10.5) (layer F.SilkS) (width 0.1))
  (fp_line (start -15.149 10.5) (end -15.231 10.038) (layer F.SilkS) (width 0.1))
  (fp_line (start -15.231 10.038) (end -15.465 9.632) (layer F.SilkS) (width 0.1))
  (fp_line (start -43.235 -16.439) (end -43.675 -16.07) (layer F.SilkS) (width 0.1))
  (fp_line (start -43.675 -16.07) (end -44.213 -15.874) (layer F.SilkS) (width 0.1))
  (fp_line (start -44.213 -15.874) (end -44.787 -15.874) (layer F.SilkS) (width 0.1))
  (fp_line (start -44.787 -15.874) (end -45.325 -16.07) (layer F.SilkS) (width 0.1))
  (fp_line (start -45.325 -16.07) (end -45.765 -16.439) (layer F.SilkS) (width 0.1))
  (fp_line (start -45.765 -16.439) (end -46.051 -16.935) (layer F.SilkS) (width 0.1))
  (fp_line (start -46.051 -16.935) (end -46.151 -17.5) (layer F.SilkS) (width 0.1))
  (fp_line (start -46.151 -17.5) (end -46.051 -18.065) (layer F.SilkS) (width 0.1))
  (fp_line (start -46.051 -18.065) (end -45.765 -18.561) (layer F.SilkS) (width 0.1))
  (fp_line (start -45.765 -18.561) (end -45.325 -18.93) (layer F.SilkS) (width 0.1))
  (fp_line (start -45.325 -18.93) (end -44.787 -19.126) (layer F.SilkS) (width 0.1))
  (fp_line (start -44.787 -19.126) (end -44.213 -19.126) (layer F.SilkS) (width 0.1))
  (fp_line (start -44.213 -19.126) (end -43.675 -18.93) (layer F.SilkS) (width 0.1))
  (fp_line (start -43.675 -18.93) (end -43.235 -18.561) (layer F.SilkS) (width 0.1))
  (fp_line (start -43.235 -18.561) (end -42.949 -18.065) (layer F.SilkS) (width 0.1))
  (fp_line (start -42.949 -18.065) (end -42.849 -17.5) (layer F.SilkS) (width 0.1))
  (fp_line (start -42.849 -17.5) (end -42.949 -16.935) (layer F.SilkS) (width 0.1))
  (fp_line (start -42.949 -16.935) (end -43.235 -16.439) (layer F.SilkS) (width 0.1))
  (fp_line (start -43.465 -18.368) (end -43.825 -18.67) (layer F.SilkS) (width 0.1))
  (fp_line (start -43.825 -18.67) (end -44.265 -18.83) (layer F.SilkS) (width 0.1))
  (fp_line (start -44.265 -18.83) (end -44.735 -18.83) (layer F.SilkS) (width 0.1))
  (fp_line (start -44.735 -18.83) (end -45.175 -18.67) (layer F.SilkS) (width 0.1))
  (fp_line (start -45.175 -18.67) (end -45.535 -18.368) (layer F.SilkS) (width 0.1))
  (fp_line (start -45.535 -18.368) (end -45.769 -17.962) (layer F.SilkS) (width 0.1))
  (fp_line (start -45.769 -17.962) (end -45.851 -17.5) (layer F.SilkS) (width 0.1))
  (fp_line (start -45.851 -17.5) (end -45.769 -17.038) (layer F.SilkS) (width 0.1))
  (fp_line (start -45.769 -17.038) (end -45.535 -16.632) (layer F.SilkS) (width 0.1))
  (fp_line (start -45.535 -16.632) (end -45.175 -16.33) (layer F.SilkS) (width 0.1))
  (fp_line (start -45.175 -16.33) (end -44.735 -16.17) (layer F.SilkS) (width 0.1))
  (fp_line (start -44.735 -16.17) (end -44.265 -16.17) (layer F.SilkS) (width 0.1))
  (fp_line (start -44.265 -16.17) (end -43.825 -16.33) (layer F.SilkS) (width 0.1))
  (fp_line (start -43.825 -16.33) (end -43.465 -16.632) (layer F.SilkS) (width 0.1))
  (fp_line (start -43.465 -16.632) (end -43.231 -17.038) (layer F.SilkS) (width 0.1))
  (fp_line (start -43.231 -17.038) (end -43.149 -17.5) (layer F.SilkS) (width 0.1))
  (fp_line (start -43.149 -17.5) (end -43.231 -17.962) (layer F.SilkS) (width 0.1))
  (fp_line (start -43.231 -17.962) (end -43.465 -18.368) (layer F.SilkS) (width 0.1))
  (fp_line (start -15.235 -16.439) (end -15.675 -16.07) (layer F.SilkS) (width 0.1))
  (fp_line (start -15.675 -16.07) (end -16.213 -15.874) (layer F.SilkS) (width 0.1))
  (fp_line (start -16.213 -15.874) (end -16.787 -15.874) (layer F.SilkS) (width 0.1))
  (fp_line (start -16.787 -15.874) (end -17.325 -16.07) (layer F.SilkS) (width 0.1))
  (fp_line (start -17.325 -16.07) (end -17.765 -16.439) (layer F.SilkS) (width 0.1))
  (fp_line (start -17.765 -16.439) (end -18.051 -16.935) (layer F.SilkS) (width 0.1))
  (fp_line (start -18.051 -16.935) (end -18.151 -17.5) (layer F.SilkS) (width 0.1))
  (fp_line (start -18.151 -17.5) (end -18.051 -18.065) (layer F.SilkS) (width 0.1))
  (fp_line (start -18.051 -18.065) (end -17.765 -18.561) (layer F.SilkS) (width 0.1))
  (fp_line (start -17.765 -18.561) (end -17.325 -18.93) (layer F.SilkS) (width 0.1))
  (fp_line (start -17.325 -18.93) (end -16.787 -19.126) (layer F.SilkS) (width 0.1))
  (fp_line (start -16.787 -19.126) (end -16.213 -19.126) (layer F.SilkS) (width 0.1))
  (fp_line (start -16.213 -19.126) (end -15.675 -18.93) (layer F.SilkS) (width 0.1))
  (fp_line (start -15.675 -18.93) (end -15.235 -18.561) (layer F.SilkS) (width 0.1))
  (fp_line (start -15.235 -18.561) (end -14.949 -18.065) (layer F.SilkS) (width 0.1))
  (fp_line (start -14.949 -18.065) (end -14.849 -17.5) (layer F.SilkS) (width 0.1))
  (fp_line (start -14.849 -17.5) (end -14.949 -16.935) (layer F.SilkS) (width 0.1))
  (fp_line (start -14.949 -16.935) (end -15.235 -16.439) (layer F.SilkS) (width 0.1))
  (fp_line (start -15.465 -18.368) (end -15.825 -18.67) (layer F.SilkS) (width 0.1))
  (fp_line (start -15.825 -18.67) (end -16.265 -18.83) (layer F.SilkS) (width 0.1))
  (fp_line (start -16.265 -18.83) (end -16.735 -18.83) (layer F.SilkS) (width 0.1))
  (fp_line (start -16.735 -18.83) (end -17.175 -18.67) (layer F.SilkS) (width 0.1))
  (fp_line (start -17.175 -18.67) (end -17.535 -18.368) (layer F.SilkS) (width 0.1))
  (fp_line (start -17.535 -18.368) (end -17.769 -17.962) (layer F.SilkS) (width 0.1))
  (fp_line (start -17.769 -17.962) (end -17.851 -17.5) (layer F.SilkS) (width 0.1))
  (fp_line (start -17.851 -17.5) (end -17.769 -17.038) (layer F.SilkS) (width 0.1))
  (fp_line (start -17.769 -17.038) (end -17.535 -16.632) (layer F.SilkS) (width 0.1))
  (fp_line (start -17.535 -16.632) (end -17.175 -16.33) (layer F.SilkS) (width 0.1))
  (fp_line (start -17.175 -16.33) (end -16.735 -16.17) (layer F.SilkS) (width 0.1))
  (fp_line (start -16.735 -16.17) (end -16.265 -16.17) (layer F.SilkS) (width 0.1))
  (fp_line (start -16.265 -16.17) (end -15.825 -16.33) (layer F.SilkS) (width 0.1))
  (fp_line (start -15.825 -16.33) (end -15.465 -16.632) (layer F.SilkS) (width 0.1))
  (fp_line (start -15.465 -16.632) (end -15.231 -17.038) (layer F.SilkS) (width 0.1))
  (fp_line (start -15.231 -17.038) (end -15.149 -17.5) (layer F.SilkS) (width 0.1))
  (fp_line (start -15.149 -17.5) (end -15.231 -17.962) (layer F.SilkS) (width 0.1))
  (fp_line (start -15.231 -17.962) (end -15.465 -18.368) (layer F.SilkS) (width 0.1))
  (pad "" connect circle (at 0 -25 90) (size 1.05 1.05) (layers F.SilkS Dwgs.User))
  (pad "" connect circle (at 0 0 90) (size 1.6 1.6) (layers F.SilkS Dwgs.User))
  (pad "" smd rect (at 3.5 2.15 90) (size 2.3 3.2) (layers F.Cu F.Paste F.Mask))
  (pad "" smd rect (at 3.5 -27.15 90) (size 2.3 3.2) (layers F.Cu F.Paste F.Mask))
  (pad 1 smd rect (at 4.1 -0.7 90) (size 0.6 2) (layers F.Cu F.Paste F.Mask))
  (pad 2 smd rect (at -4.1 -1.1 90) (size 0.6 2) (layers F.Cu F.Paste F.Mask))
  (pad 3 smd rect (at 4.1 -1.5 90) (size 0.6 2) (layers F.Cu F.Paste F.Mask))
  (pad 4 smd rect (at -4.1 -1.9 90) (size 0.6 2) (layers F.Cu F.Paste F.Mask))
  (pad 5 smd rect (at 4.1 -2.3 90) (size 0.6 2) (layers F.Cu F.Paste F.Mask))
  (pad 6 smd rect (at -4.1 -2.7 90) (size 0.6 2) (layers F.Cu F.Paste F.Mask))
  (pad 7 smd rect (at 4.1 -3.1 90) (size 0.6 2) (layers F.Cu F.Paste F.Mask))
  (pad 8 smd rect (at -4.1 -3.5 90) (size 0.6 2) (layers F.Cu F.Paste F.Mask))
  (pad 9 smd rect (at 4.1 -3.9 90) (size 0.6 2) (layers F.Cu F.Paste F.Mask))
  (pad 10 smd rect (at -4.1 -4.3 90) (size 0.6 2) (layers F.Cu F.Paste F.Mask))
  (pad 11 smd rect (at 4.1 -4.7 90) (size 0.6 2) (layers F.Cu F.Paste F.Mask))
  (pad 12 smd rect (at -4.1 -5.1 90) (size 0.6 2) (layers F.Cu F.Paste F.Mask))
  (pad 13 smd rect (at 4.1 -5.5 90) (size 0.6 2) (layers F.Cu F.Paste F.Mask))
  (pad 14 smd rect (at -4.1 -5.9 90) (size 0.6 2) (layers F.Cu F.Paste F.Mask))
  (pad 15 smd rect (at 4.1 -6.3 90) (size 0.6 2) (layers F.Cu F.Paste F.Mask))
  (pad 16 smd rect (at -4.1 -6.7 90) (size 0.6 2) (layers F.Cu F.Paste F.Mask))
  (pad 17 smd rect (at 4.1 -10.3 90) (size 0.6 2) (layers F.Cu F.Paste F.Mask))
  (pad 18 smd rect (at -4.1 -10.7 90) (size 0.6 2) (layers F.Cu F.Paste F.Mask))
  (pad 19 smd rect (at 4.1 -11.1 90) (size 0.6 2) (layers F.Cu F.Paste F.Mask))
  (pad 20 smd rect (at -4.1 -11.5 90) (size 0.6 2) (layers F.Cu F.Paste F.Mask))
  (pad 21 smd rect (at 4.1 -11.9 90) (size 0.6 2) (layers F.Cu F.Paste F.Mask))
  (pad 22 smd rect (at -4.1 -12.3 90) (size 0.6 2) (layers F.Cu F.Paste F.Mask))
  (pad 23 smd rect (at 4.1 -12.7 90) (size 0.6 2) (layers F.Cu F.Paste F.Mask))
  (pad 24 smd rect (at -4.1 -13.1 90) (size 0.6 2) (layers F.Cu F.Paste F.Mask))
  (pad 25 smd rect (at 4.1 -13.5 90) (size 0.6 2) (layers F.Cu F.Paste F.Mask))
  (pad 26 smd rect (at -4.1 -13.9 90) (size 0.6 2) (layers F.Cu F.Paste F.Mask))
  (pad 27 smd rect (at 4.1 -14.3 90) (size 0.6 2) (layers F.Cu F.Paste F.Mask))
  (pad 28 smd rect (at -4.1 -14.7 90) (size 0.6 2) (layers F.Cu F.Paste F.Mask))
  (pad 29 smd rect (at 4.1 -15.1 90) (size 0.6 2) (layers F.Cu F.Paste F.Mask))
  (pad 30 smd rect (at -4.1 -15.5 90) (size 0.6 2) (layers F.Cu F.Paste F.Mask))
  (pad 31 smd rect (at 4.1 -15.9 90) (size 0.6 2) (layers F.Cu F.Paste F.Mask))
  (pad 32 smd rect (at -4.1 -16.3 90) (size 0.6 2) (layers F.Cu F.Paste F.Mask))
  (pad 33 smd rect (at 4.1 -16.7 90) (size 0.6 2) (layers F.Cu F.Paste F.Mask))
  (pad 34 smd rect (at -4.1 -17.1 90) (size 0.6 2) (layers F.Cu F.Paste F.Mask))
  (pad 35 smd rect (at 4.1 -17.5 90) (size 0.6 2) (layers F.Cu F.Paste F.Mask))
  (pad 36 smd rect (at -4.1 -17.9 90) (size 0.6 2) (layers F.Cu F.Paste F.Mask))
  (pad 37 smd rect (at 4.1 -18.3 90) (size 0.6 2) (layers F.Cu F.Paste F.Mask))
  (pad 38 smd rect (at -4.1 -18.7 90) (size 0.6 2) (layers F.Cu F.Paste F.Mask))
  (pad 39 smd rect (at 4.1 -19.1 90) (size 0.6 2) (layers F.Cu F.Paste F.Mask))
  (pad 40 smd rect (at -4.1 -19.5 90) (size 0.6 2) (layers F.Cu F.Paste F.Mask))
  (pad 41 smd rect (at 4.1 -19.9 90) (size 0.6 2) (layers F.Cu F.Paste F.Mask))
  (pad 42 smd rect (at -4.1 -20.3 90) (size 0.6 2) (layers F.Cu F.Paste F.Mask))
  (pad 43 smd rect (at 4.1 -20.7 90) (size 0.6 2) (layers F.Cu F.Paste F.Mask))
  (pad 44 smd rect (at -4.1 -21.1 90) (size 0.6 2) (layers F.Cu F.Paste F.Mask))
  (pad 45 smd rect (at 4.1 -21.5 90) (size 0.6 2) (layers F.Cu F.Paste F.Mask))
  (pad 46 smd rect (at -4.1 -21.9 90) (size 0.6 2) (layers F.Cu F.Paste F.Mask))
  (pad 47 smd rect (at 4.1 -22.3 90) (size 0.6 2) (layers F.Cu F.Paste F.Mask))
  (pad 48 smd rect (at -4.1 -22.7 90) (size 0.6 2) (layers F.Cu F.Paste F.Mask))
  (pad 49 smd rect (at 4.1 -23.1 90) (size 0.6 2) (layers F.Cu F.Paste F.Mask))
  (pad 50 smd rect (at -4.1 -23.5 90) (size 0.6 2) (layers F.Cu F.Paste F.Mask))
  (pad 51 smd rect (at 4.1 -23.9 90) (size 0.6 2) (layers F.Cu F.Paste F.Mask))
  (pad 52 smd rect (at -4.1 -24.3 90) (size 0.6 2) (layers F.Cu F.Paste F.Mask))
)
